ISO-10303-21;
HEADER;
/* Generated by software containing ST-Developer
 * from STEP Tools, Inc. (www.steptools.com) 
 */
/* OPTION: using custom schema-name function */

FILE_DESCRIPTION(
/* description */ (''),
/* implementation_level */ '2;1');

FILE_NAME(
/* name */ 'LAMPRI~1',
/* time_stamp */ '2021-07-28T14:33:20+01:00',
/* author */ (''),
/* organization */ (''),
/* preprocessor_version */ 'ST-DEVELOPER v16.5',
/* originating_system */ '',
/* authorisation */ '');

FILE_SCHEMA (('AUTOMOTIVE_DESIGN'));
ENDSEC;

DATA;
#10=SHAPE_REPRESENTATION_RELATIONSHIP('','',#317,#13);
#11=PRESENTATION_LAYER_ASSIGNMENT('Default','',(#12));
#12=MANIFOLD_SOLID_BREP('brep_1',#14);
#13=ADVANCED_BREP_SHAPE_REPRESENTATION('brep_rep_0',(#12,#323),#316);
#14=CLOSED_SHELL('',(#19,#20,#21,#22,#23,#24,#25,#26,#27,#28,#29,#30,#31,
#32,#33,#34,#35,#36));
#15=FACE_BOUND('',#57,.T.);
#16=FACE_BOUND('',#60,.T.);
#17=FACE_BOUND('',#65,.T.);
#18=FACE_BOUND('',#67,.T.);
#19=ADVANCED_FACE('',(#37),#285,.T.);
#20=ADVANCED_FACE('',(#38,#15),#281,.T.);
#21=ADVANCED_FACE('',(#39),#286,.T.);
#22=ADVANCED_FACE('',(#40,#16),#282,.T.);
#23=ADVANCED_FACE('',(#41),#287,.T.);
#24=ADVANCED_FACE('',(#42),#288,.T.);
#25=ADVANCED_FACE('',(#43),#289,.T.);
#26=ADVANCED_FACE('',(#44,#17),#283,.T.);
#27=ADVANCED_FACE('',(#45,#18),#284,.T.);
#28=ADVANCED_FACE('',(#46),#290,.T.);
#29=ADVANCED_FACE('',(#47),#291,.T.);
#30=ADVANCED_FACE('',(#48),#292,.T.);
#31=ADVANCED_FACE('',(#49),#293,.T.);
#32=ADVANCED_FACE('',(#50),#294,.T.);
#33=ADVANCED_FACE('',(#51),#295,.T.);
#34=ADVANCED_FACE('',(#52),#296,.T.);
#35=ADVANCED_FACE('',(#53),#297,.T.);
#36=ADVANCED_FACE('',(#54),#298,.T.);
#37=FACE_OUTER_BOUND('',#55,.T.);
#38=FACE_OUTER_BOUND('',#56,.T.);
#39=FACE_OUTER_BOUND('',#58,.T.);
#40=FACE_OUTER_BOUND('',#59,.T.);
#41=FACE_OUTER_BOUND('',#61,.T.);
#42=FACE_OUTER_BOUND('',#62,.T.);
#43=FACE_OUTER_BOUND('',#63,.T.);
#44=FACE_OUTER_BOUND('',#64,.T.);
#45=FACE_OUTER_BOUND('',#66,.T.);
#46=FACE_OUTER_BOUND('',#68,.T.);
#47=FACE_OUTER_BOUND('',#69,.T.);
#48=FACE_OUTER_BOUND('',#70,.T.);
#49=FACE_OUTER_BOUND('',#71,.T.);
#50=FACE_OUTER_BOUND('',#72,.T.);
#51=FACE_OUTER_BOUND('',#73,.T.);
#52=FACE_OUTER_BOUND('',#74,.T.);
#53=FACE_OUTER_BOUND('',#75,.T.);
#54=FACE_OUTER_BOUND('',#76,.T.);
#55=EDGE_LOOP('',(#77,#78,#79,#80));
#56=EDGE_LOOP('',(#81,#82));
#57=EDGE_LOOP('',(#83,#84));
#58=EDGE_LOOP('',(#85,#86,#87,#88));
#59=EDGE_LOOP('',(#89,#90));
#60=EDGE_LOOP('',(#91,#92));
#61=EDGE_LOOP('',(#93,#94,#95,#96,#97,#98,#99));
#62=EDGE_LOOP('',(#100,#101,#102,#103,#104,#105));
#63=EDGE_LOOP('',(#106,#107,#108,#109,#110,#111,#112));
#64=EDGE_LOOP('',(#113,#114));
#65=EDGE_LOOP('',(#115,#116));
#66=EDGE_LOOP('',(#117,#118));
#67=EDGE_LOOP('',(#119,#120));
#68=EDGE_LOOP('',(#121,#122,#123,#124));
#69=EDGE_LOOP('',(#125,#126,#127,#128));
#70=EDGE_LOOP('',(#129,#130,#131,#132));
#71=EDGE_LOOP('',(#133,#134,#135,#136));
#72=EDGE_LOOP('',(#137,#138,#139,#140,#141,#142,#143));
#73=EDGE_LOOP('',(#144,#145,#146,#147,#148,#149));
#74=EDGE_LOOP('',(#150,#151,#152,#153,#154,#155,#156));
#75=EDGE_LOOP('',(#157,#158,#159,#160));
#76=EDGE_LOOP('',(#161,#162,#163,#164));
#77=ORIENTED_EDGE('',*,*,#165,.F.);
#78=ORIENTED_EDGE('',*,*,#166,.T.);
#79=ORIENTED_EDGE('',*,*,#167,.T.);
#80=ORIENTED_EDGE('',*,*,#190,.F.);
#81=ORIENTED_EDGE('',*,*,#165,.T.);
#82=ORIENTED_EDGE('',*,*,#191,.T.);
#83=ORIENTED_EDGE('',*,*,#168,.T.);
#84=ORIENTED_EDGE('',*,*,#197,.T.);
#85=ORIENTED_EDGE('',*,*,#170,.F.);
#86=ORIENTED_EDGE('',*,*,#171,.T.);
#87=ORIENTED_EDGE('',*,*,#172,.T.);
#88=ORIENTED_EDGE('',*,*,#193,.F.);
#89=ORIENTED_EDGE('',*,*,#170,.T.);
#90=ORIENTED_EDGE('',*,*,#194,.T.);
#91=ORIENTED_EDGE('',*,*,#173,.T.);
#92=ORIENTED_EDGE('',*,*,#198,.T.);
#93=ORIENTED_EDGE('',*,*,#196,.T.);
#94=ORIENTED_EDGE('',*,*,#173,.F.);
#95=ORIENTED_EDGE('',*,*,#181,.F.);
#96=ORIENTED_EDGE('',*,*,#179,.T.);
#97=ORIENTED_EDGE('',*,*,#177,.T.);
#98=ORIENTED_EDGE('',*,*,#169,.F.);
#99=ORIENTED_EDGE('',*,*,#197,.F.);
#100=ORIENTED_EDGE('',*,*,#178,.F.);
#101=ORIENTED_EDGE('',*,*,#177,.F.);
#102=ORIENTED_EDGE('',*,*,#182,.T.);
#103=ORIENTED_EDGE('',*,*,#175,.F.);
#104=ORIENTED_EDGE('',*,*,#200,.F.);
#105=ORIENTED_EDGE('',*,*,#199,.F.);
#106=ORIENTED_EDGE('',*,*,#202,.T.);
#107=ORIENTED_EDGE('',*,*,#187,.F.);
#108=ORIENTED_EDGE('',*,*,#180,.F.);
#109=ORIENTED_EDGE('',*,*,#174,.T.);
#110=ORIENTED_EDGE('',*,*,#200,.T.);
#111=ORIENTED_EDGE('',*,*,#183,.F.);
#112=ORIENTED_EDGE('',*,*,#184,.T.);
#113=ORIENTED_EDGE('',*,*,#206,.F.);
#114=ORIENTED_EDGE('',*,*,#186,.F.);
#115=ORIENTED_EDGE('',*,*,#192,.F.);
#116=ORIENTED_EDGE('',*,*,#167,.F.);
#117=ORIENTED_EDGE('',*,*,#189,.T.);
#118=ORIENTED_EDGE('',*,*,#208,.T.);
#119=ORIENTED_EDGE('',*,*,#195,.F.);
#120=ORIENTED_EDGE('',*,*,#172,.F.);
#121=ORIENTED_EDGE('',*,*,#184,.F.);
#122=ORIENTED_EDGE('',*,*,#185,.T.);
#123=ORIENTED_EDGE('',*,*,#186,.T.);
#124=ORIENTED_EDGE('',*,*,#205,.F.);
#125=ORIENTED_EDGE('',*,*,#207,.T.);
#126=ORIENTED_EDGE('',*,*,#189,.F.);
#127=ORIENTED_EDGE('',*,*,#188,.F.);
#128=ORIENTED_EDGE('',*,*,#187,.T.);
#129=ORIENTED_EDGE('',*,*,#190,.T.);
#130=ORIENTED_EDGE('',*,*,#192,.T.);
#131=ORIENTED_EDGE('',*,*,#166,.F.);
#132=ORIENTED_EDGE('',*,*,#191,.F.);
#133=ORIENTED_EDGE('',*,*,#193,.T.);
#134=ORIENTED_EDGE('',*,*,#195,.T.);
#135=ORIENTED_EDGE('',*,*,#171,.F.);
#136=ORIENTED_EDGE('',*,*,#194,.F.);
#137=ORIENTED_EDGE('',*,*,#168,.F.);
#138=ORIENTED_EDGE('',*,*,#169,.T.);
#139=ORIENTED_EDGE('',*,*,#178,.T.);
#140=ORIENTED_EDGE('',*,*,#201,.T.);
#141=ORIENTED_EDGE('',*,*,#181,.T.);
#142=ORIENTED_EDGE('',*,*,#198,.F.);
#143=ORIENTED_EDGE('',*,*,#196,.F.);
#144=ORIENTED_EDGE('',*,*,#199,.T.);
#145=ORIENTED_EDGE('',*,*,#174,.F.);
#146=ORIENTED_EDGE('',*,*,#176,.F.);
#147=ORIENTED_EDGE('',*,*,#182,.F.);
#148=ORIENTED_EDGE('',*,*,#179,.F.);
#149=ORIENTED_EDGE('',*,*,#201,.F.);
#150=ORIENTED_EDGE('',*,*,#203,.T.);
#151=ORIENTED_EDGE('',*,*,#183,.T.);
#152=ORIENTED_EDGE('',*,*,#175,.T.);
#153=ORIENTED_EDGE('',*,*,#176,.T.);
#154=ORIENTED_EDGE('',*,*,#180,.T.);
#155=ORIENTED_EDGE('',*,*,#204,.F.);
#156=ORIENTED_EDGE('',*,*,#202,.F.);
#157=ORIENTED_EDGE('',*,*,#205,.T.);
#158=ORIENTED_EDGE('',*,*,#206,.T.);
#159=ORIENTED_EDGE('',*,*,#185,.F.);
#160=ORIENTED_EDGE('',*,*,#203,.F.);
#161=ORIENTED_EDGE('',*,*,#204,.T.);
#162=ORIENTED_EDGE('',*,*,#188,.T.);
#163=ORIENTED_EDGE('',*,*,#208,.F.);
#164=ORIENTED_EDGE('',*,*,#207,.F.);
#165=EDGE_CURVE('',#253,#269,#221,.T.);
#166=EDGE_CURVE('',#253,#255,#222,.T.);
#167=EDGE_CURVE('',#255,#270,#223,.T.);
#168=EDGE_CURVE('',#254,#273,#224,.T.);
#169=EDGE_CURVE('',#254,#263,#225,.T.);
#170=EDGE_CURVE('',#256,#271,#226,.T.);
#171=EDGE_CURVE('',#256,#257,#227,.T.);
#172=EDGE_CURVE('',#257,#272,#228,.T.);
#173=EDGE_CURVE('',#258,#274,#229,.T.);
#174=EDGE_CURVE('',#259,#276,#209,.T.);
#175=EDGE_CURVE('',#260,#261,#210,.T.);
#176=EDGE_CURVE('',#261,#259,#211,.T.);
#177=EDGE_CURVE('',#262,#263,#212,.T.);
#178=EDGE_CURVE('',#263,#275,#213,.T.);
#179=EDGE_CURVE('',#264,#262,#214,.T.);
#180=EDGE_CURVE('',#259,#266,#230,.T.);
#181=EDGE_CURVE('',#264,#258,#231,.T.);
#182=EDGE_CURVE('',#262,#261,#232,.T.);
#183=EDGE_CURVE('',#265,#260,#233,.T.);
#184=EDGE_CURVE('',#265,#277,#234,.T.);
#185=EDGE_CURVE('',#265,#267,#215,.T.);
#186=EDGE_CURVE('',#267,#279,#235,.T.);
#187=EDGE_CURVE('',#266,#278,#236,.T.);
#188=EDGE_CURVE('',#266,#268,#216,.T.);
#189=EDGE_CURVE('',#268,#280,#237,.T.);
#190=EDGE_CURVE('',#269,#270,#238,.T.);
#191=EDGE_CURVE('',#269,#253,#239,.T.);
#192=EDGE_CURVE('',#270,#255,#240,.T.);
#193=EDGE_CURVE('',#271,#272,#241,.T.);
#194=EDGE_CURVE('',#271,#256,#242,.T.);
#195=EDGE_CURVE('',#272,#257,#243,.T.);
#196=EDGE_CURVE('',#273,#274,#244,.T.);
#197=EDGE_CURVE('',#273,#254,#245,.T.);
#198=EDGE_CURVE('',#274,#258,#246,.T.);
#199=EDGE_CURVE('',#275,#276,#247,.T.);
#200=EDGE_CURVE('',#276,#260,#217,.T.);
#201=EDGE_CURVE('',#275,#264,#218,.T.);
#202=EDGE_CURVE('',#277,#278,#248,.T.);
#203=EDGE_CURVE('',#277,#265,#249,.T.);
#204=EDGE_CURVE('',#278,#266,#250,.T.);
#205=EDGE_CURVE('',#277,#279,#219,.T.);
#206=EDGE_CURVE('',#279,#267,#251,.T.);
#207=EDGE_CURVE('',#278,#280,#220,.T.);
#208=EDGE_CURVE('',#280,#268,#252,.T.);
#209=B_SPLINE_CURVE_WITH_KNOTS('',3,(#541,#542,#543,#544,#545,#546,#547,
#548,#549,#550),.UNSPECIFIED.,.F.,.F.,(4,2,2,2,4),(0.,1.97692554539228,
3.95359186525823,5.93025695904484,7.90718352473763),.UNSPECIFIED.);
#210=B_SPLINE_CURVE_WITH_KNOTS('',3,(#551,#552,#553,#554,#555,#556,#557,
#558,#559,#560),.UNSPECIFIED.,.F.,.F.,(4,2,2,2,4),(0.,1.97692554539236,
3.95359186525825,5.93025695904485,7.90718352473763),.UNSPECIFIED.);
#211=B_SPLINE_CURVE_WITH_KNOTS('',3,(#561,#562,#563,#564,#565,#566,#567,
#568,#569,#570),.UNSPECIFIED.,.F.,.F.,(4,2,2,2,4),(0.,1.97692656569276,
3.95359165947942,5.93025797934538,7.90718352473762),.UNSPECIFIED.);
#212=B_SPLINE_CURVE_WITH_KNOTS('',3,(#571,#572,#573,#574,#575,#576,#577,
#578,#579,#580),.UNSPECIFIED.,.F.,.F.,(4,2,2,2,4),(0.,1.97719594752743,
3.9540409527226,5.93088816006223,7.90808227810093),.UNSPECIFIED.);
#213=B_SPLINE_CURVE_WITH_KNOTS('',3,(#581,#582,#583,#584,#585,#586,#587,
#588,#589,#590),.UNSPECIFIED.,.F.,.F.,(4,2,2,2,4),(0.,1.97719411803871,
3.9540413253783,5.93088633057353,7.90808227810095),.UNSPECIFIED.);
#214=B_SPLINE_CURVE_WITH_KNOTS('',3,(#591,#592,#593,#594,#595,#596,#597,
#598,#599,#600),.UNSPECIFIED.,.F.,.F.,(4,2,2,2,4),(0.,1.97719411803871,
3.95404132537825,5.93088633057351,7.90808227810093),.UNSPECIFIED.);
#215=B_SPLINE_CURVE_WITH_KNOTS('',1,(#614,#615),.UNSPECIFIED.,.F.,.F.,(2,
2),(0.,1.),.UNSPECIFIED.);
#216=B_SPLINE_CURVE_WITH_KNOTS('',1,(#626,#627),.UNSPECIFIED.,.F.,.F.,(2,
2),(0.,1.),.UNSPECIFIED.);
#217=B_SPLINE_CURVE_WITH_KNOTS('',3,(#671,#672,#673,#674,#675,#676,#677,
#678,#679,#680),.UNSPECIFIED.,.F.,.F.,(4,2,2,2,4),(7.90718352473763,9.88411009043039,
11.8607751842171,13.837441504083,15.8143670494753),.UNSPECIFIED.);
#218=B_SPLINE_CURVE_WITH_KNOTS('',3,(#681,#682,#683,#684,#685,#686,#687,
#688,#689,#690),.UNSPECIFIED.,.F.,.F.,(4,2,2,2,4),(7.90808227810095,9.8852782256284,
11.8621232308236,13.8389704381632,15.8161645562019),.UNSPECIFIED.);
#219=B_SPLINE_CURVE_WITH_KNOTS('',1,(#703,#704),.UNSPECIFIED.,.F.,.F.,(2,
2),(0.,1.),.UNSPECIFIED.);
#220=B_SPLINE_CURVE_WITH_KNOTS('',1,(#710,#711),.UNSPECIFIED.,.F.,.F.,(2,
2),(0.,1.),.UNSPECIFIED.);
#221=(
BOUNDED_CURVE()
B_SPLINE_CURVE(2,(#505,#506,#507,#508,#509),.UNSPECIFIED.,.F.,.F.)
B_SPLINE_CURVE_WITH_KNOTS((3,2,3),(0.,101.866141792649,203.732283585298),
 .UNSPECIFIED.)
CURVE()
GEOMETRIC_REPRESENTATION_ITEM()
RATIONAL_B_SPLINE_CURVE((1.,0.707106781186548,1.,0.707106781186548,1.))
REPRESENTATION_ITEM('')
);
#222=(
BOUNDED_CURVE()
B_SPLINE_CURVE(1,(#510,#511),.UNSPECIFIED.,.F.,.F.)
B_SPLINE_CURVE_WITH_KNOTS((2,2),(0.,3.),.UNSPECIFIED.)
CURVE()
GEOMETRIC_REPRESENTATION_ITEM()
RATIONAL_B_SPLINE_CURVE((1.,1.))
REPRESENTATION_ITEM('')
);
#223=(
BOUNDED_CURVE()
B_SPLINE_CURVE(2,(#512,#513,#514,#515,#516),.UNSPECIFIED.,.F.,.F.)
B_SPLINE_CURVE_WITH_KNOTS((3,2,3),(0.,101.866141792649,203.732283585298),
 .UNSPECIFIED.)
CURVE()
GEOMETRIC_REPRESENTATION_ITEM()
RATIONAL_B_SPLINE_CURVE((1.,0.707106781186548,1.,0.707106781186548,1.))
REPRESENTATION_ITEM('')
);
#224=(
BOUNDED_CURVE()
B_SPLINE_CURVE(2,(#517,#518,#519,#520,#521),.UNSPECIFIED.,.F.,.F.)
B_SPLINE_CURVE_WITH_KNOTS((3,2,3),(-818.070726994782,-723.27316867271,-628.475610350638),
 .UNSPECIFIED.)
CURVE()
GEOMETRIC_REPRESENTATION_ITEM()
RATIONAL_B_SPLINE_CURVE((1.,0.707106781186548,1.,0.707106781186548,1.))
REPRESENTATION_ITEM('')
);
#225=(
BOUNDED_CURVE()
B_SPLINE_CURVE(1,(#522,#523),.UNSPECIFIED.,.F.,.F.)
B_SPLINE_CURVE_WITH_KNOTS((2,2),(3.,10.),.UNSPECIFIED.)
CURVE()
GEOMETRIC_REPRESENTATION_ITEM()
RATIONAL_B_SPLINE_CURVE((1.,1.))
REPRESENTATION_ITEM('')
);
#226=(
BOUNDED_CURVE()
B_SPLINE_CURVE(2,(#524,#525,#526,#527,#528),.UNSPECIFIED.,.F.,.F.)
B_SPLINE_CURVE_WITH_KNOTS((3,2,3),(0.,101.866141792649,203.732283585298),
 .UNSPECIFIED.)
CURVE()
GEOMETRIC_REPRESENTATION_ITEM()
RATIONAL_B_SPLINE_CURVE((1.,0.707106781186548,1.,0.707106781186548,1.))
REPRESENTATION_ITEM('')
);
#227=(
BOUNDED_CURVE()
B_SPLINE_CURVE(1,(#529,#530),.UNSPECIFIED.,.F.,.F.)
B_SPLINE_CURVE_WITH_KNOTS((2,2),(0.,3.),.UNSPECIFIED.)
CURVE()
GEOMETRIC_REPRESENTATION_ITEM()
RATIONAL_B_SPLINE_CURVE((1.,1.))
REPRESENTATION_ITEM('')
);
#228=(
BOUNDED_CURVE()
B_SPLINE_CURVE(2,(#531,#532,#533,#534,#535),.UNSPECIFIED.,.F.,.F.)
B_SPLINE_CURVE_WITH_KNOTS((3,2,3),(0.,101.866141792649,203.732283585298),
 .UNSPECIFIED.)
CURVE()
GEOMETRIC_REPRESENTATION_ITEM()
RATIONAL_B_SPLINE_CURVE((1.,0.707106781186548,1.,0.707106781186548,1.))
REPRESENTATION_ITEM('')
);
#229=(
BOUNDED_CURVE()
B_SPLINE_CURVE(2,(#536,#537,#538,#539,#540),.UNSPECIFIED.,.F.,.F.)
B_SPLINE_CURVE_WITH_KNOTS((3,2,3),(438.880493706494,533.678052028566,628.475610350638),
 .UNSPECIFIED.)
CURVE()
GEOMETRIC_REPRESENTATION_ITEM()
RATIONAL_B_SPLINE_CURVE((1.,0.707106781186548,1.,0.707106781186548,1.))
REPRESENTATION_ITEM('')
);
#230=(
BOUNDED_CURVE()
B_SPLINE_CURVE(1,(#601,#602),.UNSPECIFIED.,.F.,.F.)
B_SPLINE_CURVE_WITH_KNOTS((2,2),(20.,29.5),.UNSPECIFIED.)
CURVE()
GEOMETRIC_REPRESENTATION_ITEM()
RATIONAL_B_SPLINE_CURVE((1.,1.))
REPRESENTATION_ITEM('')
);
#231=(
BOUNDED_CURVE()
B_SPLINE_CURVE(1,(#603,#604),.UNSPECIFIED.,.F.,.F.)
B_SPLINE_CURVE_WITH_KNOTS((2,2),(20.,27.),.UNSPECIFIED.)
CURVE()
GEOMETRIC_REPRESENTATION_ITEM()
RATIONAL_B_SPLINE_CURVE((1.,1.))
REPRESENTATION_ITEM('')
);
#232=(
BOUNDED_CURVE()
B_SPLINE_CURVE(1,(#605,#606),.UNSPECIFIED.,.F.,.F.)
B_SPLINE_CURVE_WITH_KNOTS((2,2),(25.2052632368843,34.7335602661787),
 .UNSPECIFIED.)
CURVE()
GEOMETRIC_REPRESENTATION_ITEM()
RATIONAL_B_SPLINE_CURVE((1.,1.))
REPRESENTATION_ITEM('')
);
#233=(
BOUNDED_CURVE()
B_SPLINE_CURVE(1,(#607,#608),.UNSPECIFIED.,.F.,.F.)
B_SPLINE_CURVE_WITH_KNOTS((2,2),(0.499999999999991,10.),.UNSPECIFIED.)
CURVE()
GEOMETRIC_REPRESENTATION_ITEM()
RATIONAL_B_SPLINE_CURVE((1.,1.))
REPRESENTATION_ITEM('')
);
#234=(
BOUNDED_CURVE()
B_SPLINE_CURVE(2,(#609,#610,#611,#612,#613),.UNSPECIFIED.,.F.,.F.)
B_SPLINE_CURVE_WITH_KNOTS((3,2,3),(0.,108.934553249326,217.869106498651),
 .UNSPECIFIED.)
CURVE()
GEOMETRIC_REPRESENTATION_ITEM()
RATIONAL_B_SPLINE_CURVE((1.,0.707106781186548,1.,0.707106781186548,1.))
REPRESENTATION_ITEM('')
);
#235=(
BOUNDED_CURVE()
B_SPLINE_CURVE(2,(#616,#617,#618,#619,#620),.UNSPECIFIED.,.F.,.F.)
B_SPLINE_CURVE_WITH_KNOTS((3,2,3),(0.,108.934553249326,217.869106498651),
 .UNSPECIFIED.)
CURVE()
GEOMETRIC_REPRESENTATION_ITEM()
RATIONAL_B_SPLINE_CURVE((1.,0.707106781186548,1.,0.707106781186548,1.))
REPRESENTATION_ITEM('')
);
#236=(
BOUNDED_CURVE()
B_SPLINE_CURVE(2,(#621,#622,#623,#624,#625),.UNSPECIFIED.,.F.,.F.)
B_SPLINE_CURVE_WITH_KNOTS((3,2,3),(0.,108.934553249326,217.869106498651),
 .UNSPECIFIED.)
CURVE()
GEOMETRIC_REPRESENTATION_ITEM()
RATIONAL_B_SPLINE_CURVE((1.,0.707106781186548,1.,0.707106781186548,1.))
REPRESENTATION_ITEM('')
);
#237=(
BOUNDED_CURVE()
B_SPLINE_CURVE(2,(#628,#629,#630,#631,#632),.UNSPECIFIED.,.F.,.F.)
B_SPLINE_CURVE_WITH_KNOTS((3,2,3),(0.,108.934553249326,217.869106498651),
 .UNSPECIFIED.)
CURVE()
GEOMETRIC_REPRESENTATION_ITEM()
RATIONAL_B_SPLINE_CURVE((1.,0.707106781186548,1.,0.707106781186548,1.))
REPRESENTATION_ITEM('')
);
#238=(
BOUNDED_CURVE()
B_SPLINE_CURVE(1,(#633,#634),.UNSPECIFIED.,.F.,.F.)
B_SPLINE_CURVE_WITH_KNOTS((2,2),(0.,3.),.UNSPECIFIED.)
CURVE()
GEOMETRIC_REPRESENTATION_ITEM()
RATIONAL_B_SPLINE_CURVE((1.,1.))
REPRESENTATION_ITEM('')
);
#239=(
BOUNDED_CURVE()
B_SPLINE_CURVE(2,(#635,#636,#637,#638,#639),.UNSPECIFIED.,.F.,.F.)
B_SPLINE_CURVE_WITH_KNOTS((3,2,3),(203.732283585298,305.598425377947,407.464567170596),
 .UNSPECIFIED.)
CURVE()
GEOMETRIC_REPRESENTATION_ITEM()
RATIONAL_B_SPLINE_CURVE((1.,0.707106781186548,1.,0.707106781186548,1.))
REPRESENTATION_ITEM('')
);
#240=(
BOUNDED_CURVE()
B_SPLINE_CURVE(2,(#640,#641,#642,#643,#644),.UNSPECIFIED.,.F.,.F.)
B_SPLINE_CURVE_WITH_KNOTS((3,2,3),(203.732283585298,305.598425377947,407.464567170596),
 .UNSPECIFIED.)
CURVE()
GEOMETRIC_REPRESENTATION_ITEM()
RATIONAL_B_SPLINE_CURVE((1.,0.707106781186548,1.,0.707106781186548,1.))
REPRESENTATION_ITEM('')
);
#241=(
BOUNDED_CURVE()
B_SPLINE_CURVE(1,(#645,#646),.UNSPECIFIED.,.F.,.F.)
B_SPLINE_CURVE_WITH_KNOTS((2,2),(0.,3.),.UNSPECIFIED.)
CURVE()
GEOMETRIC_REPRESENTATION_ITEM()
RATIONAL_B_SPLINE_CURVE((1.,1.))
REPRESENTATION_ITEM('')
);
#242=(
BOUNDED_CURVE()
B_SPLINE_CURVE(2,(#647,#648,#649,#650,#651),.UNSPECIFIED.,.F.,.F.)
B_SPLINE_CURVE_WITH_KNOTS((3,2,3),(203.732283585298,305.598425377947,407.464567170596),
 .UNSPECIFIED.)
CURVE()
GEOMETRIC_REPRESENTATION_ITEM()
RATIONAL_B_SPLINE_CURVE((1.,0.707106781186548,1.,0.707106781186548,1.))
REPRESENTATION_ITEM('')
);
#243=(
BOUNDED_CURVE()
B_SPLINE_CURVE(2,(#652,#653,#654,#655,#656),.UNSPECIFIED.,.F.,.F.)
B_SPLINE_CURVE_WITH_KNOTS((3,2,3),(203.732283585298,305.598425377947,407.464567170596),
 .UNSPECIFIED.)
CURVE()
GEOMETRIC_REPRESENTATION_ITEM()
RATIONAL_B_SPLINE_CURVE((1.,0.707106781186548,1.,0.707106781186548,1.))
REPRESENTATION_ITEM('')
);
#244=(
BOUNDED_CURVE()
B_SPLINE_CURVE(1,(#657,#658),.UNSPECIFIED.,.F.,.F.)
B_SPLINE_CURVE_WITH_KNOTS((2,2),(3.,27.),.UNSPECIFIED.)
CURVE()
GEOMETRIC_REPRESENTATION_ITEM()
RATIONAL_B_SPLINE_CURVE((1.,1.))
REPRESENTATION_ITEM('')
);
#245=(
BOUNDED_CURVE()
B_SPLINE_CURVE(2,(#659,#660,#661,#662,#663),.UNSPECIFIED.,.F.,.F.)
B_SPLINE_CURVE_WITH_KNOTS((3,2,3),(-628.475610350638,-533.678052028566,
-438.880493706494),.UNSPECIFIED.)
CURVE()
GEOMETRIC_REPRESENTATION_ITEM()
RATIONAL_B_SPLINE_CURVE((1.,0.707106781186548,1.,0.707106781186548,1.))
REPRESENTATION_ITEM('')
);
#246=(
BOUNDED_CURVE()
B_SPLINE_CURVE(2,(#664,#665,#666,#667,#668),.UNSPECIFIED.,.F.,.F.)
B_SPLINE_CURVE_WITH_KNOTS((3,2,3),(628.475610350638,723.27316867271,818.070726994782),
 .UNSPECIFIED.)
CURVE()
GEOMETRIC_REPRESENTATION_ITEM()
RATIONAL_B_SPLINE_CURVE((1.,0.707106781186548,1.,0.707106781186548,1.))
REPRESENTATION_ITEM('')
);
#247=(
BOUNDED_CURVE()
B_SPLINE_CURVE(1,(#669,#670),.UNSPECIFIED.,.F.,.F.)
B_SPLINE_CURVE_WITH_KNOTS((2,2),(25.2052632368843,34.7335602661787),
 .UNSPECIFIED.)
CURVE()
GEOMETRIC_REPRESENTATION_ITEM()
RATIONAL_B_SPLINE_CURVE((1.,1.))
REPRESENTATION_ITEM('')
);
#248=(
BOUNDED_CURVE()
B_SPLINE_CURVE(1,(#691,#692),.UNSPECIFIED.,.F.,.F.)
B_SPLINE_CURVE_WITH_KNOTS((2,2),(0.499999999999992,29.5),.UNSPECIFIED.)
CURVE()
GEOMETRIC_REPRESENTATION_ITEM()
RATIONAL_B_SPLINE_CURVE((1.,1.))
REPRESENTATION_ITEM('')
);
#249=(
BOUNDED_CURVE()
B_SPLINE_CURVE(2,(#693,#694,#695,#696,#697),.UNSPECIFIED.,.F.,.F.)
B_SPLINE_CURVE_WITH_KNOTS((3,2,3),(217.869106498651,326.803659747977,435.738212997303),
 .UNSPECIFIED.)
CURVE()
GEOMETRIC_REPRESENTATION_ITEM()
RATIONAL_B_SPLINE_CURVE((1.,0.707106781186548,1.,0.707106781186548,1.))
REPRESENTATION_ITEM('')
);
#250=(
BOUNDED_CURVE()
B_SPLINE_CURVE(2,(#698,#699,#700,#701,#702),.UNSPECIFIED.,.F.,.F.)
B_SPLINE_CURVE_WITH_KNOTS((3,2,3),(217.869106498651,326.803659747977,435.738212997303),
 .UNSPECIFIED.)
CURVE()
GEOMETRIC_REPRESENTATION_ITEM()
RATIONAL_B_SPLINE_CURVE((1.,0.707106781186548,1.,0.707106781186548,1.))
REPRESENTATION_ITEM('')
);
#251=(
BOUNDED_CURVE()
B_SPLINE_CURVE(2,(#705,#706,#707,#708,#709),.UNSPECIFIED.,.F.,.F.)
B_SPLINE_CURVE_WITH_KNOTS((3,2,3),(217.869106498651,326.803659747977,435.738212997303),
 .UNSPECIFIED.)
CURVE()
GEOMETRIC_REPRESENTATION_ITEM()
RATIONAL_B_SPLINE_CURVE((1.,0.707106781186548,1.,0.707106781186548,1.))
REPRESENTATION_ITEM('')
);
#252=(
BOUNDED_CURVE()
B_SPLINE_CURVE(2,(#712,#713,#714,#715,#716),.UNSPECIFIED.,.F.,.F.)
B_SPLINE_CURVE_WITH_KNOTS((3,2,3),(217.869106498651,326.803659747977,435.738212997303),
 .UNSPECIFIED.)
CURVE()
GEOMETRIC_REPRESENTATION_ITEM()
RATIONAL_B_SPLINE_CURVE((1.,0.707106781186548,1.,0.707106781186548,1.))
REPRESENTATION_ITEM('')
);
#253=VERTEX_POINT('',#477);
#254=VERTEX_POINT('',#478);
#255=VERTEX_POINT('',#479);
#256=VERTEX_POINT('',#480);
#257=VERTEX_POINT('',#481);
#258=VERTEX_POINT('',#482);
#259=VERTEX_POINT('',#483);
#260=VERTEX_POINT('',#484);
#261=VERTEX_POINT('',#485);
#262=VERTEX_POINT('',#486);
#263=VERTEX_POINT('',#487);
#264=VERTEX_POINT('',#488);
#265=VERTEX_POINT('',#489);
#266=VERTEX_POINT('',#490);
#267=VERTEX_POINT('',#491);
#268=VERTEX_POINT('',#492);
#269=VERTEX_POINT('',#493);
#270=VERTEX_POINT('',#494);
#271=VERTEX_POINT('',#495);
#272=VERTEX_POINT('',#496);
#273=VERTEX_POINT('',#497);
#274=VERTEX_POINT('',#498);
#275=VERTEX_POINT('',#499);
#276=VERTEX_POINT('',#500);
#277=VERTEX_POINT('',#501);
#278=VERTEX_POINT('',#502);
#279=VERTEX_POINT('',#503);
#280=VERTEX_POINT('',#504);
#281=PLANE('',#319);
#282=PLANE('',#320);
#283=PLANE('',#321);
#284=PLANE('',#322);
#285=(
BOUNDED_SURFACE()
B_SPLINE_SURFACE(1,2,((#333,#334,#335,#336,#337),(#338,#339,#340,#341,#342)),
 .UNSPECIFIED.,.F.,.F.,.F.)
B_SPLINE_SURFACE_WITH_KNOTS((2,2),(3,2,3),(0.,3.),(0.,101.866141792649,
203.732283585298),.UNSPECIFIED.)
GEOMETRIC_REPRESENTATION_ITEM()
RATIONAL_B_SPLINE_SURFACE(((1.,0.707106781186548,1.,0.707106781186548,1.),
(1.,0.707106781186548,1.,0.707106781186548,1.)))
REPRESENTATION_ITEM('')
SURFACE()
);
#286=(
BOUNDED_SURFACE()
B_SPLINE_SURFACE(1,2,((#344,#345,#346,#347,#348),(#349,#350,#351,#352,#353)),
 .UNSPECIFIED.,.F.,.F.,.F.)
B_SPLINE_SURFACE_WITH_KNOTS((2,2),(3,2,3),(0.,3.),(0.,101.866141792649,
203.732283585298),.UNSPECIFIED.)
GEOMETRIC_REPRESENTATION_ITEM()
RATIONAL_B_SPLINE_SURFACE(((1.,0.707106781186548,1.,0.707106781186548,1.),
(1.,0.707106781186548,1.,0.707106781186548,1.)))
REPRESENTATION_ITEM('')
SURFACE()
);
#287=(
BOUNDED_SURFACE()
B_SPLINE_SURFACE(2,1,((#355,#356),(#357,#358),(#359,#360),(#361,#362),(#363,
#364)),.UNSPECIFIED.,.F.,.F.,.F.)
B_SPLINE_SURFACE_WITH_KNOTS((3,2,3),(2,2),(438.880493706494,533.678052028566,
628.475610350638),(0.,30.),.UNSPECIFIED.)
GEOMETRIC_REPRESENTATION_ITEM()
RATIONAL_B_SPLINE_SURFACE(((1.,1.),(0.707106781186548,0.707106781186548),
(1.,1.),(0.707106781186548,0.707106781186548),(1.,1.)))
REPRESENTATION_ITEM('')
SURFACE()
);
#288=(
BOUNDED_SURFACE()
B_SPLINE_SURFACE(1,2,((#365,#366,#367,#368,#369),(#370,#371,#372,#373,#374)),
 .UNSPECIFIED.,.F.,.F.,.F.)
B_SPLINE_SURFACE_WITH_KNOTS((2,2),(3,2,3),(0.,50.0344458228851),(0.,7.85398163397448,
15.707963267949),.UNSPECIFIED.)
GEOMETRIC_REPRESENTATION_ITEM()
RATIONAL_B_SPLINE_SURFACE(((1.,0.707106781186548,1.,0.707106781186548,1.),
(1.,0.707106781186548,1.,0.707106781186548,1.)))
REPRESENTATION_ITEM('')
SURFACE()
);
#289=(
BOUNDED_SURFACE()
B_SPLINE_SURFACE(2,1,((#375,#376),(#377,#378),(#379,#380),(#381,#382),(#383,
#384)),.UNSPECIFIED.,.F.,.F.,.F.)
B_SPLINE_SURFACE_WITH_KNOTS((3,2,3),(2,2),(0.,109.720123426624,219.440246853247),
(0.,30.),.UNSPECIFIED.)
GEOMETRIC_REPRESENTATION_ITEM()
RATIONAL_B_SPLINE_SURFACE(((1.,1.),(0.707106781186548,0.707106781186548),
(1.,1.),(0.707106781186548,0.707106781186548),(1.,1.)))
REPRESENTATION_ITEM('')
SURFACE()
);
#290=(
BOUNDED_SURFACE()
B_SPLINE_SURFACE(1,2,((#387,#388,#389,#390,#391),(#392,#393,#394,#395,#396)),
 .UNSPECIFIED.,.F.,.F.,.F.)
B_SPLINE_SURFACE_WITH_KNOTS((2,2),(3,2,3),(0.,1.),(0.,108.934553249326,
217.869106498651),.UNSPECIFIED.)
GEOMETRIC_REPRESENTATION_ITEM()
RATIONAL_B_SPLINE_SURFACE(((1.,0.707106781186548,1.,0.707106781186548,1.),
(1.,0.707106781186548,1.,0.707106781186548,1.)))
REPRESENTATION_ITEM('')
SURFACE()
);
#291=(
BOUNDED_SURFACE()
B_SPLINE_SURFACE(2,1,((#397,#398),(#399,#400),(#401,#402),(#403,#404),(#405,
#406)),.UNSPECIFIED.,.F.,.F.,.F.)
B_SPLINE_SURFACE_WITH_KNOTS((3,2,3),(2,2),(0.,108.934553249326,217.869106498651),
(0.,1.),.UNSPECIFIED.)
GEOMETRIC_REPRESENTATION_ITEM()
RATIONAL_B_SPLINE_SURFACE(((1.,1.),(0.707106781186548,0.707106781186548),
(1.,1.),(0.707106781186548,0.707106781186548),(1.,1.)))
REPRESENTATION_ITEM('')
SURFACE()
);
#292=(
BOUNDED_SURFACE()
B_SPLINE_SURFACE(1,2,((#407,#408,#409,#410,#411),(#412,#413,#414,#415,#416)),
 .UNSPECIFIED.,.F.,.F.,.F.)
B_SPLINE_SURFACE_WITH_KNOTS((2,2),(3,2,3),(0.,3.),(203.732283585298,305.598425377947,
407.464567170596),.UNSPECIFIED.)
GEOMETRIC_REPRESENTATION_ITEM()
RATIONAL_B_SPLINE_SURFACE(((1.,0.707106781186548,1.,0.707106781186548,1.),
(1.,0.707106781186548,1.,0.707106781186548,1.)))
REPRESENTATION_ITEM('')
SURFACE()
);
#293=(
BOUNDED_SURFACE()
B_SPLINE_SURFACE(1,2,((#417,#418,#419,#420,#421),(#422,#423,#424,#425,#426)),
 .UNSPECIFIED.,.F.,.F.,.F.)
B_SPLINE_SURFACE_WITH_KNOTS((2,2),(3,2,3),(0.,3.),(203.732283585298,305.598425377947,
407.464567170596),.UNSPECIFIED.)
GEOMETRIC_REPRESENTATION_ITEM()
RATIONAL_B_SPLINE_SURFACE(((1.,0.707106781186548,1.,0.707106781186548,1.),
(1.,0.707106781186548,1.,0.707106781186548,1.)))
REPRESENTATION_ITEM('')
SURFACE()
);
#294=(
BOUNDED_SURFACE()
B_SPLINE_SURFACE(2,1,((#427,#428),(#429,#430),(#431,#432),(#433,#434),(#435,
#436)),.UNSPECIFIED.,.F.,.F.,.F.)
B_SPLINE_SURFACE_WITH_KNOTS((3,2,3),(2,2),(628.475610350638,723.27316867271,
818.070726994782),(0.,30.),.UNSPECIFIED.)
GEOMETRIC_REPRESENTATION_ITEM()
RATIONAL_B_SPLINE_SURFACE(((1.,1.),(0.707106781186548,0.707106781186548),
(1.,1.),(0.707106781186548,0.707106781186548),(1.,1.)))
REPRESENTATION_ITEM('')
SURFACE()
);
#295=(
BOUNDED_SURFACE()
B_SPLINE_SURFACE(1,2,((#437,#438,#439,#440,#441),(#442,#443,#444,#445,#446)),
 .UNSPECIFIED.,.F.,.F.,.F.)
B_SPLINE_SURFACE_WITH_KNOTS((2,2),(3,2,3),(0.,50.0344458228851),(15.707963267949,
23.5619449019234,31.4159265358979),.UNSPECIFIED.)
GEOMETRIC_REPRESENTATION_ITEM()
RATIONAL_B_SPLINE_SURFACE(((1.,0.707106781186548,1.,0.707106781186548,1.),
(1.,0.707106781186548,1.,0.707106781186548,1.)))
REPRESENTATION_ITEM('')
SURFACE()
);
#296=(
BOUNDED_SURFACE()
B_SPLINE_SURFACE(2,1,((#447,#448),(#449,#450),(#451,#452),(#453,#454),(#455,
#456)),.UNSPECIFIED.,.F.,.F.,.F.)
B_SPLINE_SURFACE_WITH_KNOTS((3,2,3),(2,2),(219.440246853247,329.160370279871,
438.880493706494),(0.,30.),.UNSPECIFIED.)
GEOMETRIC_REPRESENTATION_ITEM()
RATIONAL_B_SPLINE_SURFACE(((1.,1.),(0.707106781186548,0.707106781186548),
(1.,1.),(0.707106781186548,0.707106781186548),(1.,1.)))
REPRESENTATION_ITEM('')
SURFACE()
);
#297=(
BOUNDED_SURFACE()
B_SPLINE_SURFACE(1,2,((#457,#458,#459,#460,#461),(#462,#463,#464,#465,#466)),
 .UNSPECIFIED.,.F.,.F.,.F.)
B_SPLINE_SURFACE_WITH_KNOTS((2,2),(3,2,3),(0.,1.),(217.869106498651,326.803659747977,
435.738212997303),.UNSPECIFIED.)
GEOMETRIC_REPRESENTATION_ITEM()
RATIONAL_B_SPLINE_SURFACE(((1.,0.707106781186548,1.,0.707106781186548,1.),
(1.,0.707106781186548,1.,0.707106781186548,1.)))
REPRESENTATION_ITEM('')
SURFACE()
);
#298=(
BOUNDED_SURFACE()
B_SPLINE_SURFACE(2,1,((#467,#468),(#469,#470),(#471,#472),(#473,#474),(#475,
#476)),.UNSPECIFIED.,.F.,.F.,.F.)
B_SPLINE_SURFACE_WITH_KNOTS((3,2,3),(2,2),(217.869106498651,326.803659747977,
435.738212997303),(0.,1.),.UNSPECIFIED.)
GEOMETRIC_REPRESENTATION_ITEM()
RATIONAL_B_SPLINE_SURFACE(((1.,1.),(0.707106781186548,0.707106781186548),
(1.,1.),(0.707106781186548,0.707106781186548),(1.,1.)))
REPRESENTATION_ITEM('')
SURFACE()
);
#299=SHAPE_DEFINITION_REPRESENTATION(#300,#317);
#300=PRODUCT_DEFINITION_SHAPE('Document','',#302);
#301=PRODUCT_DEFINITION_CONTEXT('3D Mechanical Parts',#306,'design');
#302=PRODUCT_DEFINITION('A','First version',#303,#301);
#303=PRODUCT_DEFINITION_FORMATION_WITH_SPECIFIED_SOURCE('A',
'First version',#308,.MADE.);
#304=PRODUCT_RELATED_PRODUCT_CATEGORY('tool','tool',(#308));
#305=APPLICATION_PROTOCOL_DEFINITION('Draft International Standard',
'automotive_design',1999,#306);
#306=APPLICATION_CONTEXT(
'data for automotive mechanical design processes');
#307=PRODUCT_CONTEXT('3D Mechanical Parts',#306,'mechanical');
#308=PRODUCT('Document','Document','Rhino converted to STEP',(#307));
#309=(
LENGTH_UNIT()
NAMED_UNIT(*)
SI_UNIT(.MILLI.,.METRE.)
);
#310=(
NAMED_UNIT(*)
PLANE_ANGLE_UNIT()
SI_UNIT($,.RADIAN.)
);
#311=DIMENSIONAL_EXPONENTS(0.,0.,0.,0.,0.,0.,0.);
#312=PLANE_ANGLE_MEASURE_WITH_UNIT(PLANE_ANGLE_MEASURE(0.01745329252),#310);
#313=(
CONVERSION_BASED_UNIT('DEGREES',#312)
NAMED_UNIT(#311)
PLANE_ANGLE_UNIT()
);
#314=(
NAMED_UNIT(*)
SI_UNIT($,.STERADIAN.)
SOLID_ANGLE_UNIT()
);
#315=UNCERTAINTY_MEASURE_WITH_UNIT(LENGTH_MEASURE(0.001),#309,
'DISTANCE_ACCURACY_VALUE',
'Maximum model space distance between geometric entities at asserted c
onnectivities');
#316=(
GEOMETRIC_REPRESENTATION_CONTEXT(3)
GLOBAL_UNCERTAINTY_ASSIGNED_CONTEXT((#315))
GLOBAL_UNIT_ASSIGNED_CONTEXT((#314,#313,#309))
REPRESENTATION_CONTEXT('ID1','3D')
);
#317=SHAPE_REPRESENTATION('Document',(#318,#323),#316);
#318=AXIS2_PLACEMENT_3D('',#332,#324,#325);
#319=AXIS2_PLACEMENT_3D('',#343,#326,$);
#320=AXIS2_PLACEMENT_3D('',#354,#327,$);
#321=AXIS2_PLACEMENT_3D('',#385,#328,$);
#322=AXIS2_PLACEMENT_3D('',#386,#329,$);
#323=AXIS2_PLACEMENT_3D('',#717,#330,#331);
#324=DIRECTION('',(0.,0.,1.));
#325=DIRECTION('',(1.,0.,0.));
#326=DIRECTION('',(0.,0.,1.));
#327=DIRECTION('',(0.,0.,-1.));
#328=DIRECTION('',(0.,0.,1.));
#329=DIRECTION('',(0.,0.,-1.));
#330=DIRECTION('',(0.,0.,1.));
#331=DIRECTION('',(1.,0.,0.));
#332=CARTESIAN_POINT('',(0.,0.,0.));
#333=CARTESIAN_POINT('',(64.3272438929735,0.804907306847952,27.));
#334=CARTESIAN_POINT('',(64.3272438929735,65.6549073068479,27.));
#335=CARTESIAN_POINT('',(-0.522756107026506,65.6549073068479,27.));
#336=CARTESIAN_POINT('',(-65.3727561070265,65.6549073068479,27.));
#337=CARTESIAN_POINT('',(-65.3727561070265,0.80490730684796,27.));
#338=CARTESIAN_POINT('',(64.3272438929735,0.804907306847952,30.));
#339=CARTESIAN_POINT('',(64.3272438929735,65.6549073068479,30.));
#340=CARTESIAN_POINT('',(-0.522756107026506,65.6549073068479,30.));
#341=CARTESIAN_POINT('',(-65.3727561070265,65.6549073068479,30.));
#342=CARTESIAN_POINT('',(-65.3727561070265,0.80490730684796,30.));
#343=CARTESIAN_POINT('',(-81.5852561070265,-80.257592693152,27.));
#344=CARTESIAN_POINT('',(64.3272438929735,0.804907306847936,3.));
#345=CARTESIAN_POINT('',(64.3272438929735,-64.045092693152,3.));
#346=CARTESIAN_POINT('',(-0.522756107026522,-64.045092693152,3.));
#347=CARTESIAN_POINT('',(-65.3727561070265,-64.045092693152,3.));
#348=CARTESIAN_POINT('',(-65.3727561070265,0.80490730684796,3.));
#349=CARTESIAN_POINT('',(64.3272438929735,0.804907306847936,0.));
#350=CARTESIAN_POINT('',(64.3272438929735,-64.045092693152,0.));
#351=CARTESIAN_POINT('',(-0.522756107026522,-64.045092693152,0.));
#352=CARTESIAN_POINT('',(-65.3727561070265,-64.045092693152,0.));
#353=CARTESIAN_POINT('',(-65.3727561070265,0.80490730684796,0.));
#354=CARTESIAN_POINT('',(80.5397438929735,-80.257592693152,3.));
#355=CARTESIAN_POINT('',(59.8272438929735,0.804907306847966,30.));
#356=CARTESIAN_POINT('',(59.8272438929735,0.804907306847966,0.));
#357=CARTESIAN_POINT('',(59.8272438929735,61.154907306848,30.));
#358=CARTESIAN_POINT('',(59.8272438929735,61.154907306848,0.));
#359=CARTESIAN_POINT('',(-0.522756107026521,61.1549073068479,30.));
#360=CARTESIAN_POINT('',(-0.522756107026521,61.1549073068479,0.));
#361=CARTESIAN_POINT('',(-60.8727561070265,61.1549073068479,30.));
#362=CARTESIAN_POINT('',(-60.8727561070265,61.1549073068479,0.));
#363=CARTESIAN_POINT('',(-60.8727561070265,0.804907306847944,30.));
#364=CARTESIAN_POINT('',(-60.8727561070265,0.804907306847944,0.));
#365=CARTESIAN_POINT('',(34.4144988940213,5.80490730684795,15.));
#366=CARTESIAN_POINT('',(34.4144988940213,5.80490730684795,20.));
#367=CARTESIAN_POINT('',(34.4144988940213,0.804907306847952,20.));
#368=CARTESIAN_POINT('',(34.4144988940213,-4.19509269315205,20.));
#369=CARTESIAN_POINT('',(34.4144988940213,-4.19509269315205,15.));
#370=CARTESIAN_POINT('',(84.4489447169064,5.80490730684795,15.));
#371=CARTESIAN_POINT('',(84.4489447169064,5.80490730684795,20.));
#372=CARTESIAN_POINT('',(84.4489447169064,0.804907306847952,20.));
#373=CARTESIAN_POINT('',(84.4489447169064,-4.19509269315205,20.));
#374=CARTESIAN_POINT('',(84.4489447169064,-4.19509269315205,15.));
#375=CARTESIAN_POINT('',(69.3272438929735,0.804907306847952,30.));
#376=CARTESIAN_POINT('',(69.3272438929735,0.804907306847952,0.));
#377=CARTESIAN_POINT('',(69.3272438929735,-69.045092693152,30.));
#378=CARTESIAN_POINT('',(69.3272438929735,-69.045092693152,0.));
#379=CARTESIAN_POINT('',(-0.522756107026505,-69.045092693152,30.));
#380=CARTESIAN_POINT('',(-0.522756107026505,-69.045092693152,0.));
#381=CARTESIAN_POINT('',(-70.3727561070265,-69.045092693152,30.));
#382=CARTESIAN_POINT('',(-70.3727561070265,-69.045092693152,0.));
#383=CARTESIAN_POINT('',(-70.3727561070265,0.804907306847943,30.));
#384=CARTESIAN_POINT('',(-70.3727561070265,0.804907306847943,0.));
#385=CARTESIAN_POINT('',(-87.8352561070265,88.117407306848,30.));
#386=CARTESIAN_POINT('',(-87.8352561070265,88.117407306848,0.));
#387=CARTESIAN_POINT('',(69.3272438929735,0.804907306847952,29.5));
#388=CARTESIAN_POINT('',(69.3272438929735,-69.045092693152,29.5));
#389=CARTESIAN_POINT('',(-0.522756107026501,-69.045092693152,29.5));
#390=CARTESIAN_POINT('',(-70.3727561070265,-69.045092693152,29.5));
#391=CARTESIAN_POINT('',(-70.3727561070265,0.804907306847937,29.5));
#392=CARTESIAN_POINT('',(68.8272438929735,0.804907306847952,30.));
#393=CARTESIAN_POINT('',(68.8272438929735,-68.545092693152,30.));
#394=CARTESIAN_POINT('',(-0.522756107026501,-68.545092693152,30.));
#395=CARTESIAN_POINT('',(-69.8727561070265,-68.545092693152,30.));
#396=CARTESIAN_POINT('',(-69.8727561070265,0.804907306847938,30.));
#397=CARTESIAN_POINT('',(69.3272438929735,0.804907306847951,0.5));
#398=CARTESIAN_POINT('',(68.8272438929735,0.804907306847952,0.));
#399=CARTESIAN_POINT('',(69.3272438929735,-69.045092693152,0.5));
#400=CARTESIAN_POINT('',(68.8272438929735,-68.545092693152,0.));
#401=CARTESIAN_POINT('',(-0.522756107026501,-69.045092693152,0.5));
#402=CARTESIAN_POINT('',(-0.522756107026501,-68.545092693152,0.));
#403=CARTESIAN_POINT('',(-70.3727561070265,-69.045092693152,0.5));
#404=CARTESIAN_POINT('',(-69.8727561070265,-68.545092693152,0.));
#405=CARTESIAN_POINT('',(-70.3727561070265,0.804907306847938,0.5));
#406=CARTESIAN_POINT('',(-69.8727561070265,0.804907306847938,0.));
#407=CARTESIAN_POINT('',(-65.3727561070265,0.80490730684796,27.));
#408=CARTESIAN_POINT('',(-65.3727561070265,-64.045092693152,27.));
#409=CARTESIAN_POINT('',(-0.522756107026522,-64.045092693152,27.));
#410=CARTESIAN_POINT('',(64.3272438929735,-64.045092693152,27.));
#411=CARTESIAN_POINT('',(64.3272438929735,0.804907306847952,27.));
#412=CARTESIAN_POINT('',(-65.3727561070265,0.80490730684796,30.));
#413=CARTESIAN_POINT('',(-65.3727561070265,-64.045092693152,30.));
#414=CARTESIAN_POINT('',(-0.522756107026522,-64.045092693152,30.));
#415=CARTESIAN_POINT('',(64.3272438929735,-64.045092693152,30.));
#416=CARTESIAN_POINT('',(64.3272438929735,0.804907306847952,30.));
#417=CARTESIAN_POINT('',(-65.3727561070265,0.80490730684796,3.));
#418=CARTESIAN_POINT('',(-65.3727561070265,65.6549073068479,3.));
#419=CARTESIAN_POINT('',(-0.522756107026506,65.6549073068479,3.));
#420=CARTESIAN_POINT('',(64.3272438929735,65.6549073068479,3.));
#421=CARTESIAN_POINT('',(64.3272438929735,0.804907306847936,3.));
#422=CARTESIAN_POINT('',(-65.3727561070265,0.80490730684796,0.));
#423=CARTESIAN_POINT('',(-65.3727561070265,65.6549073068479,0.));
#424=CARTESIAN_POINT('',(-0.522756107026506,65.6549073068479,0.));
#425=CARTESIAN_POINT('',(64.3272438929735,65.6549073068479,0.));
#426=CARTESIAN_POINT('',(64.3272438929735,0.804907306847936,0.));
#427=CARTESIAN_POINT('',(-60.8727561070265,0.804907306847944,30.));
#428=CARTESIAN_POINT('',(-60.8727561070265,0.804907306847944,0.));
#429=CARTESIAN_POINT('',(-60.8727561070265,-59.545092693152,30.));
#430=CARTESIAN_POINT('',(-60.8727561070265,-59.545092693152,0.));
#431=CARTESIAN_POINT('',(-0.522756107026506,-59.545092693152,30.));
#432=CARTESIAN_POINT('',(-0.522756107026506,-59.545092693152,0.));
#433=CARTESIAN_POINT('',(59.8272438929735,-59.545092693152,30.));
#434=CARTESIAN_POINT('',(59.8272438929735,-59.545092693152,0.));
#435=CARTESIAN_POINT('',(59.8272438929735,0.804907306847966,30.));
#436=CARTESIAN_POINT('',(59.8272438929735,0.804907306847966,0.));
#437=CARTESIAN_POINT('',(34.4144988940213,-4.19509269315205,15.));
#438=CARTESIAN_POINT('',(34.4144988940213,-4.19509269315205,10.));
#439=CARTESIAN_POINT('',(34.4144988940213,0.804907306847951,10.));
#440=CARTESIAN_POINT('',(34.4144988940213,5.80490730684795,10.));
#441=CARTESIAN_POINT('',(34.4144988940213,5.80490730684795,15.));
#442=CARTESIAN_POINT('',(84.4489447169064,-4.19509269315205,15.));
#443=CARTESIAN_POINT('',(84.4489447169064,-4.19509269315205,10.));
#444=CARTESIAN_POINT('',(84.4489447169064,0.804907306847951,10.));
#445=CARTESIAN_POINT('',(84.4489447169064,5.80490730684795,10.));
#446=CARTESIAN_POINT('',(84.4489447169064,5.80490730684795,15.));
#447=CARTESIAN_POINT('',(-70.3727561070265,0.804907306847943,30.));
#448=CARTESIAN_POINT('',(-70.3727561070265,0.804907306847943,0.));
#449=CARTESIAN_POINT('',(-70.3727561070265,70.6549073068479,30.));
#450=CARTESIAN_POINT('',(-70.3727561070265,70.6549073068479,0.));
#451=CARTESIAN_POINT('',(-0.522756107026523,70.6549073068479,30.));
#452=CARTESIAN_POINT('',(-0.522756107026523,70.6549073068479,0.));
#453=CARTESIAN_POINT('',(69.3272438929735,70.6549073068479,30.));
#454=CARTESIAN_POINT('',(69.3272438929735,70.6549073068479,0.));
#455=CARTESIAN_POINT('',(69.3272438929735,0.804907306847952,30.));
#456=CARTESIAN_POINT('',(69.3272438929735,0.804907306847952,0.));
#457=CARTESIAN_POINT('',(-70.3727561070265,0.804907306847946,29.5));
#458=CARTESIAN_POINT('',(-70.3727561070265,70.6549073068479,29.5));
#459=CARTESIAN_POINT('',(-0.522756107026515,70.6549073068479,29.5));
#460=CARTESIAN_POINT('',(69.3272438929735,70.6549073068479,29.5));
#461=CARTESIAN_POINT('',(69.3272438929735,0.80490730684796,29.5));
#462=CARTESIAN_POINT('',(-69.8727561070265,0.804907306847946,30.));
#463=CARTESIAN_POINT('',(-69.8727561070265,70.1549073068479,30.));
#464=CARTESIAN_POINT('',(-0.522756107026515,70.1549073068479,30.));
#465=CARTESIAN_POINT('',(68.8272438929735,70.1549073068479,30.));
#466=CARTESIAN_POINT('',(68.8272438929735,0.80490730684796,30.));
#467=CARTESIAN_POINT('',(-70.3727561070265,0.804907306847946,0.5));
#468=CARTESIAN_POINT('',(-69.8727561070265,0.804907306847946,0.));
#469=CARTESIAN_POINT('',(-70.3727561070265,70.6549073068479,0.5));
#470=CARTESIAN_POINT('',(-69.8727561070265,70.1549073068479,0.));
#471=CARTESIAN_POINT('',(-0.522756107026515,70.6549073068479,0.5));
#472=CARTESIAN_POINT('',(-0.522756107026515,70.1549073068479,0.));
#473=CARTESIAN_POINT('',(69.3272438929735,70.6549073068479,0.5));
#474=CARTESIAN_POINT('',(68.8272438929735,70.1549073068479,0.));
#475=CARTESIAN_POINT('',(69.3272438929735,0.80490730684796,0.5));
#476=CARTESIAN_POINT('',(68.8272438929735,0.80490730684796,0.));
#477=CARTESIAN_POINT('',(64.3272438929735,0.804907306847952,27.));
#478=CARTESIAN_POINT('',(59.8272438929735,0.804907306847966,27.));
#479=CARTESIAN_POINT('',(64.3272438929735,0.804907306847952,30.));
#480=CARTESIAN_POINT('',(64.3272438929735,0.804907306847936,3.));
#481=CARTESIAN_POINT('',(64.3272438929735,0.804907306847936,0.));
#482=CARTESIAN_POINT('',(59.8272438929735,0.804907306847966,3.));
#483=CARTESIAN_POINT('',(69.3272438929735,0.804907306847951,10.));
#484=CARTESIAN_POINT('',(69.3272438929735,0.804907306847952,20.));
#485=CARTESIAN_POINT('',(69.1480591602,5.80490730684795,15.));
#486=CARTESIAN_POINT('',(59.6197621309056,5.80490730684793,15.));
#487=CARTESIAN_POINT('',(59.8272438929735,0.804907306847959,20.));
#488=CARTESIAN_POINT('',(59.8272438929735,0.804907306847958,10.));
#489=CARTESIAN_POINT('',(69.3272438929735,0.804907306847952,29.5));
#490=CARTESIAN_POINT('',(69.3272438929735,0.804907306847951,0.5));
#491=CARTESIAN_POINT('',(68.8272438929735,0.804907306847962,30.));
#492=CARTESIAN_POINT('',(68.8272438929735,0.804907306847962,0.));
#493=CARTESIAN_POINT('',(-65.3727561070265,0.80490730684796,27.));
#494=CARTESIAN_POINT('',(-65.3727561070265,0.80490730684796,30.));
#495=CARTESIAN_POINT('',(-65.3727561070265,0.80490730684796,3.));
#496=CARTESIAN_POINT('',(-65.3727561070265,0.80490730684796,0.));
#497=CARTESIAN_POINT('',(-60.8727561070265,0.804907306847944,27.));
#498=CARTESIAN_POINT('',(-60.8727561070265,0.804907306847944,3.));
#499=CARTESIAN_POINT('',(59.6197621309056,-4.19509269315205,15.));
#500=CARTESIAN_POINT('',(69.1480591602,-4.19509269315205,15.));
#501=CARTESIAN_POINT('',(-70.3727561070265,0.804907306847946,29.5));
#502=CARTESIAN_POINT('',(-70.3727561070265,0.804907306847946,0.5));
#503=CARTESIAN_POINT('',(-69.8727561070265,0.804907306847946,30.));
#504=CARTESIAN_POINT('',(-69.8727561070265,0.804907306847946,0.));
#505=CARTESIAN_POINT('',(64.3272438929735,0.804907306847952,27.));
#506=CARTESIAN_POINT('',(64.3272438929735,65.6549073068479,27.));
#507=CARTESIAN_POINT('',(-0.522756107026506,65.6549073068479,27.));
#508=CARTESIAN_POINT('',(-65.3727561070265,65.6549073068479,27.));
#509=CARTESIAN_POINT('',(-65.3727561070265,0.80490730684796,27.));
#510=CARTESIAN_POINT('',(64.3272438929735,0.804907306847952,27.));
#511=CARTESIAN_POINT('',(64.3272438929735,0.804907306847952,30.));
#512=CARTESIAN_POINT('',(64.3272438929735,0.804907306847952,30.));
#513=CARTESIAN_POINT('',(64.3272438929735,65.6549073068479,30.));
#514=CARTESIAN_POINT('',(-0.522756107026506,65.6549073068479,30.));
#515=CARTESIAN_POINT('',(-65.3727561070265,65.6549073068479,30.));
#516=CARTESIAN_POINT('',(-65.3727561070265,0.80490730684796,30.));
#517=CARTESIAN_POINT('',(59.8272438929735,0.804907306847966,27.));
#518=CARTESIAN_POINT('',(59.8272438929735,-59.545092693152,27.));
#519=CARTESIAN_POINT('',(-0.522756107026506,-59.545092693152,27.));
#520=CARTESIAN_POINT('',(-60.8727561070265,-59.545092693152,27.));
#521=CARTESIAN_POINT('',(-60.8727561070265,0.804907306847944,27.));
#522=CARTESIAN_POINT('',(59.8272438929735,0.804907306847966,27.));
#523=CARTESIAN_POINT('',(59.8272438929735,0.804907306847959,20.));
#524=CARTESIAN_POINT('',(64.3272438929735,0.804907306847936,3.));
#525=CARTESIAN_POINT('',(64.3272438929735,-64.045092693152,3.));
#526=CARTESIAN_POINT('',(-0.522756107026522,-64.045092693152,3.));
#527=CARTESIAN_POINT('',(-65.3727561070265,-64.045092693152,3.));
#528=CARTESIAN_POINT('',(-65.3727561070265,0.80490730684796,3.));
#529=CARTESIAN_POINT('',(64.3272438929735,0.804907306847936,3.));
#530=CARTESIAN_POINT('',(64.3272438929735,0.804907306847936,0.));
#531=CARTESIAN_POINT('',(64.3272438929735,0.804907306847936,0.));
#532=CARTESIAN_POINT('',(64.3272438929735,-64.045092693152,0.));
#533=CARTESIAN_POINT('',(-0.522756107026522,-64.045092693152,0.));
#534=CARTESIAN_POINT('',(-65.3727561070265,-64.045092693152,0.));
#535=CARTESIAN_POINT('',(-65.3727561070265,0.80490730684796,0.));
#536=CARTESIAN_POINT('',(59.8272438929735,0.804907306847966,3.));
#537=CARTESIAN_POINT('',(59.8272438929735,61.154907306848,3.));
#538=CARTESIAN_POINT('',(-0.522756107026521,61.1549073068479,3.));
#539=CARTESIAN_POINT('',(-60.8727561070265,61.1549073068479,3.));
#540=CARTESIAN_POINT('',(-60.8727561070265,0.804907306847944,3.));
#541=CARTESIAN_POINT('',(69.3272438929735,0.804907306847951,10.));
#542=CARTESIAN_POINT('',(69.3272438929735,0.148010876480323,10.));
#543=CARTESIAN_POINT('',(69.3176487594255,-0.502250619515806,10.1294197800343));
#544=CARTESIAN_POINT('',(69.2843946848183,-1.71549256115866,10.6320845990234));
#545=CARTESIAN_POINT('',(69.2612307126715,-2.26651533436703,11.0003545589491));
#546=CARTESIAN_POINT('',(69.2141873129361,-3.19473963579343,11.9285794011767));
#547=CARTESIAN_POINT('',(69.1909960793544,-3.56300900797211,12.4796020287836));
#548=CARTESIAN_POINT('',(69.157681616545,-4.06567297405732,13.6928425296434));
#549=CARTESIAN_POINT('',(69.1480591602,-4.19509269315205,14.3431031088077));
#550=CARTESIAN_POINT('',(69.1480591602,-4.19509269315205,15.));
#551=CARTESIAN_POINT('',(69.3272438929735,0.804907306847952,20.));
#552=CARTESIAN_POINT('',(69.3272438929735,1.46180373721561,20.));
#553=CARTESIAN_POINT('',(69.3176487594255,2.11206523321169,19.8705802199657));
#554=CARTESIAN_POINT('',(69.2843946848182,3.32530717485454,19.3679154009766));
#555=CARTESIAN_POINT('',(69.2612307126715,3.87632994806295,18.9996454410509));
#556=CARTESIAN_POINT('',(69.2141873129361,4.80455424948933,18.0714205988233));
#557=CARTESIAN_POINT('',(69.1909960793544,5.17282362166801,17.5203979712164));
#558=CARTESIAN_POINT('',(69.157681616545,5.67548758775322,16.3071574703566));
#559=CARTESIAN_POINT('',(69.1480591602,5.80490730684795,15.6568968911923));
#560=CARTESIAN_POINT('',(69.1480591602,5.80490730684795,15.));
#561=CARTESIAN_POINT('',(69.1480591602,5.80490730684795,15.));
#562=CARTESIAN_POINT('',(69.1480591602,5.80490730684795,14.3431031088077));
#563=CARTESIAN_POINT('',(69.157681616545,5.67548758775321,13.6928425296434));
#564=CARTESIAN_POINT('',(69.1909960793544,5.17282362166801,12.4796020287836));
#565=CARTESIAN_POINT('',(69.2141873129361,4.80455424948934,11.9285794011767));
#566=CARTESIAN_POINT('',(69.2612307126715,3.87632994806294,11.0003545589491));
#567=CARTESIAN_POINT('',(69.2843946848182,3.32530717485455,10.6320845990234));
#568=CARTESIAN_POINT('',(69.3176487594255,2.11206523321173,10.1294197800344));
#569=CARTESIAN_POINT('',(69.3272438929735,1.46180373721556,10.));
#570=CARTESIAN_POINT('',(69.3272438929735,0.804907306847951,10.));
#571=CARTESIAN_POINT('',(59.6197621309056,5.80490730684793,15.));
#572=CARTESIAN_POINT('',(59.6197621309056,5.80490730684795,15.6569949054632));
#573=CARTESIAN_POINT('',(59.6309122006719,5.67545659945012,16.3072828607834));
#574=CARTESIAN_POINT('',(59.6695022155655,5.17275308583473,17.5205176192347));
#575=CARTESIAN_POINT('',(59.6963595929422,4.80449336152086,18.0714812713092));
#576=CARTESIAN_POINT('',(59.7508248802244,3.87639224896965,18.9995833556258));
#577=CARTESIAN_POINT('',(59.7776399598305,3.32542833515952,19.367844136346));
#578=CARTESIAN_POINT('',(59.8161362487966,2.11219098629454,19.8705491835198));
#579=CARTESIAN_POINT('',(59.8272438929735,1.46190138532967,20.));
#580=CARTESIAN_POINT('',(59.8272438929735,0.804907306847959,20.));
#581=CARTESIAN_POINT('',(59.8272438929735,0.804907306847959,20.));
#582=CARTESIAN_POINT('',(59.8272438929735,0.14791322836624,20.));
#583=CARTESIAN_POINT('',(59.8161362487966,-0.502376372598616,19.8705491835198));
#584=CARTESIAN_POINT('',(59.7776399598305,-1.7156137214636,19.367844136346));
#585=CARTESIAN_POINT('',(59.7508248802244,-2.26657763527374,18.9995833556258));
#586=CARTESIAN_POINT('',(59.6963595929422,-3.19467874782497,18.0714812713092));
#587=CARTESIAN_POINT('',(59.6695022155655,-3.56293847213881,17.5205176192348));
#588=CARTESIAN_POINT('',(59.6309122006719,-4.06564198575422,16.3072828607834));
#589=CARTESIAN_POINT('',(59.6197621309056,-4.19509269315205,15.6569949054632));
#590=CARTESIAN_POINT('',(59.6197621309056,-4.19509269315205,15.));
#591=CARTESIAN_POINT('',(59.8272438929735,0.804907306847958,10.));
#592=CARTESIAN_POINT('',(59.8272438929735,1.46190138532968,10.));
#593=CARTESIAN_POINT('',(59.8161362487966,2.11219098629453,10.1294508164802));
#594=CARTESIAN_POINT('',(59.7776399598305,3.3254283351595,10.632155863654));
#595=CARTESIAN_POINT('',(59.7508248802244,3.87639224896967,11.0004166443743));
#596=CARTESIAN_POINT('',(59.6963595929422,4.80449336152088,11.9285187286908));
#597=CARTESIAN_POINT('',(59.6695022155655,5.17275308583471,12.4794823807652));
#598=CARTESIAN_POINT('',(59.6309122006719,5.67545659945013,13.6927171392166));
#599=CARTESIAN_POINT('',(59.6197621309056,5.80490730684795,14.3430050945368));
#600=CARTESIAN_POINT('',(59.6197621309056,5.80490730684793,15.));
#601=CARTESIAN_POINT('',(69.3272438929735,0.804907306847951,10.));
#602=CARTESIAN_POINT('',(69.3272438929735,0.804907306847951,0.5));
#603=CARTESIAN_POINT('',(59.8272438929735,0.804907306847958,10.));
#604=CARTESIAN_POINT('',(59.8272438929735,0.804907306847966,3.));
#605=CARTESIAN_POINT('',(59.6197621309056,5.80490730684793,15.));
#606=CARTESIAN_POINT('',(69.1480591602,5.80490730684795,15.));
#607=CARTESIAN_POINT('',(69.3272438929735,0.804907306847952,29.5));
#608=CARTESIAN_POINT('',(69.3272438929735,0.804907306847952,20.));
#609=CARTESIAN_POINT('',(69.3272438929735,0.804907306847952,29.5));
#610=CARTESIAN_POINT('',(69.3272438929735,-69.045092693152,29.5));
#611=CARTESIAN_POINT('',(-0.522756107026501,-69.045092693152,29.5));
#612=CARTESIAN_POINT('',(-70.3727561070265,-69.045092693152,29.5));
#613=CARTESIAN_POINT('',(-70.3727561070265,0.804907306847946,29.5));
#614=CARTESIAN_POINT('',(69.3272438929735,0.804907306847952,29.5));
#615=CARTESIAN_POINT('',(68.8272438929735,0.804907306847962,30.));
#616=CARTESIAN_POINT('',(68.8272438929735,0.804907306847952,30.));
#617=CARTESIAN_POINT('',(68.8272438929735,-68.545092693152,30.));
#618=CARTESIAN_POINT('',(-0.522756107026501,-68.545092693152,30.));
#619=CARTESIAN_POINT('',(-69.8727561070265,-68.5450926931521,30.));
#620=CARTESIAN_POINT('',(-69.8727561070265,0.804907306847946,30.));
#621=CARTESIAN_POINT('',(69.3272438929735,0.804907306847951,0.5));
#622=CARTESIAN_POINT('',(69.3272438929735,-69.045092693152,0.5));
#623=CARTESIAN_POINT('',(-0.522756107026501,-69.045092693152,0.5));
#624=CARTESIAN_POINT('',(-70.3727561070265,-69.045092693152,0.5));
#625=CARTESIAN_POINT('',(-70.3727561070265,0.804907306847946,0.5));
#626=CARTESIAN_POINT('',(69.3272438929735,0.804907306847951,0.5));
#627=CARTESIAN_POINT('',(68.8272438929735,0.804907306847962,0.));
#628=CARTESIAN_POINT('',(68.8272438929735,0.804907306847952,0.));
#629=CARTESIAN_POINT('',(68.8272438929735,-68.545092693152,0.));
#630=CARTESIAN_POINT('',(-0.522756107026501,-68.545092693152,0.));
#631=CARTESIAN_POINT('',(-69.8727561070265,-68.5450926931521,0.));
#632=CARTESIAN_POINT('',(-69.8727561070265,0.804907306847946,0.));
#633=CARTESIAN_POINT('',(-65.3727561070265,0.80490730684796,27.));
#634=CARTESIAN_POINT('',(-65.3727561070265,0.80490730684796,30.));
#635=CARTESIAN_POINT('',(-65.3727561070265,0.80490730684796,27.));
#636=CARTESIAN_POINT('',(-65.3727561070265,-64.045092693152,27.));
#637=CARTESIAN_POINT('',(-0.522756107026522,-64.045092693152,27.));
#638=CARTESIAN_POINT('',(64.3272438929735,-64.045092693152,27.));
#639=CARTESIAN_POINT('',(64.3272438929735,0.804907306847952,27.));
#640=CARTESIAN_POINT('',(-65.3727561070265,0.80490730684796,30.));
#641=CARTESIAN_POINT('',(-65.3727561070265,-64.045092693152,30.));
#642=CARTESIAN_POINT('',(-0.522756107026522,-64.045092693152,30.));
#643=CARTESIAN_POINT('',(64.3272438929735,-64.045092693152,30.));
#644=CARTESIAN_POINT('',(64.3272438929735,0.804907306847952,30.));
#645=CARTESIAN_POINT('',(-65.3727561070265,0.80490730684796,3.));
#646=CARTESIAN_POINT('',(-65.3727561070265,0.80490730684796,0.));
#647=CARTESIAN_POINT('',(-65.3727561070265,0.80490730684796,3.));
#648=CARTESIAN_POINT('',(-65.3727561070265,65.6549073068479,3.));
#649=CARTESIAN_POINT('',(-0.522756107026506,65.6549073068479,3.));
#650=CARTESIAN_POINT('',(64.3272438929735,65.6549073068479,3.));
#651=CARTESIAN_POINT('',(64.3272438929735,0.804907306847936,3.));
#652=CARTESIAN_POINT('',(-65.3727561070265,0.80490730684796,0.));
#653=CARTESIAN_POINT('',(-65.3727561070265,65.6549073068479,0.));
#654=CARTESIAN_POINT('',(-0.522756107026506,65.6549073068479,0.));
#655=CARTESIAN_POINT('',(64.3272438929735,65.6549073068479,0.));
#656=CARTESIAN_POINT('',(64.3272438929735,0.804907306847936,0.));
#657=CARTESIAN_POINT('',(-60.8727561070265,0.804907306847944,27.));
#658=CARTESIAN_POINT('',(-60.8727561070265,0.804907306847944,3.00000000000001));
#659=CARTESIAN_POINT('',(-60.8727561070265,0.804907306847944,27.));
#660=CARTESIAN_POINT('',(-60.8727561070265,61.1549073068479,27.));
#661=CARTESIAN_POINT('',(-0.522756107026521,61.1549073068479,27.));
#662=CARTESIAN_POINT('',(59.8272438929735,61.154907306848,27.));
#663=CARTESIAN_POINT('',(59.8272438929735,0.804907306847966,27.));
#664=CARTESIAN_POINT('',(-60.8727561070265,0.804907306847944,3.));
#665=CARTESIAN_POINT('',(-60.8727561070265,-59.545092693152,3.));
#666=CARTESIAN_POINT('',(-0.522756107026506,-59.545092693152,3.));
#667=CARTESIAN_POINT('',(59.8272438929735,-59.545092693152,3.));
#668=CARTESIAN_POINT('',(59.8272438929735,0.804907306847966,3.));
#669=CARTESIAN_POINT('',(59.6197621309056,-4.19509269315205,15.));
#670=CARTESIAN_POINT('',(69.1480591602,-4.19509269315205,15.));
#671=CARTESIAN_POINT('',(69.1480591602,-4.19509269315205,15.));
#672=CARTESIAN_POINT('',(69.1480591602,-4.19509269315205,15.6568968911923));
#673=CARTESIAN_POINT('',(69.157681616545,-4.06567297405731,16.3071574703566));
#674=CARTESIAN_POINT('',(69.1909960793544,-3.5630090079721,17.5203979712164));
#675=CARTESIAN_POINT('',(69.2141873129361,-3.19473963579344,18.0714205988233));
#676=CARTESIAN_POINT('',(69.2612307126715,-2.26651533436704,18.9996454410509));
#677=CARTESIAN_POINT('',(69.2843946848183,-1.71549256115864,19.3679154009766));
#678=CARTESIAN_POINT('',(69.3176487594255,-0.502250619515823,19.8705802199656));
#679=CARTESIAN_POINT('',(69.3272438929735,0.148010876480341,20.));
#680=CARTESIAN_POINT('',(69.3272438929735,0.804907306847952,20.));
#681=CARTESIAN_POINT('',(59.6197621309056,-4.19509269315205,15.));
#682=CARTESIAN_POINT('',(59.6197621309056,-4.19509269315205,14.3430050945368));
#683=CARTESIAN_POINT('',(59.6309122006719,-4.06564198575423,13.6927171392166));
#684=CARTESIAN_POINT('',(59.6695022155655,-3.56293847213881,12.4794823807652));
#685=CARTESIAN_POINT('',(59.6963595929422,-3.19467874782497,11.9285187286908));
#686=CARTESIAN_POINT('',(59.7508248802244,-2.26657763527377,11.0004166443743));
#687=CARTESIAN_POINT('',(59.7776399598305,-1.71561372146359,10.632155863654));
#688=CARTESIAN_POINT('',(59.8161362487966,-0.502376372598609,10.1294508164802));
#689=CARTESIAN_POINT('',(59.8272438929735,0.147913228366227,10.));
#690=CARTESIAN_POINT('',(59.8272438929735,0.804907306847958,10.));
#691=CARTESIAN_POINT('',(-70.3727561070265,0.804907306847943,29.5));
#692=CARTESIAN_POINT('',(-70.3727561070265,0.804907306847943,0.5));
#693=CARTESIAN_POINT('',(-70.3727561070265,0.804907306847946,29.5));
#694=CARTESIAN_POINT('',(-70.3727561070265,70.6549073068479,29.5));
#695=CARTESIAN_POINT('',(-0.522756107026523,70.6549073068479,29.5));
#696=CARTESIAN_POINT('',(69.3272438929735,70.6549073068479,29.5));
#697=CARTESIAN_POINT('',(69.3272438929735,0.804907306847952,29.5));
#698=CARTESIAN_POINT('',(-70.3727561070265,0.804907306847946,0.5));
#699=CARTESIAN_POINT('',(-70.3727561070265,70.6549073068479,0.5));
#700=CARTESIAN_POINT('',(-0.522756107026523,70.6549073068479,0.5));
#701=CARTESIAN_POINT('',(69.3272438929735,70.6549073068479,0.5));
#702=CARTESIAN_POINT('',(69.3272438929735,0.804907306847951,0.5));
#703=CARTESIAN_POINT('',(-70.3727561070265,0.804907306847946,29.5));
#704=CARTESIAN_POINT('',(-69.8727561070265,0.804907306847946,30.));
#705=CARTESIAN_POINT('',(-69.8727561070265,0.804907306847946,30.));
#706=CARTESIAN_POINT('',(-69.8727561070265,70.1549073068479,30.));
#707=CARTESIAN_POINT('',(-0.522756107026523,70.1549073068479,30.));
#708=CARTESIAN_POINT('',(68.8272438929735,70.154907306848,30.));
#709=CARTESIAN_POINT('',(68.8272438929735,0.804907306847952,30.));
#710=CARTESIAN_POINT('',(-70.3727561070265,0.804907306847946,0.5));
#711=CARTESIAN_POINT('',(-69.8727561070265,0.804907306847946,0.));
#712=CARTESIAN_POINT('',(-69.8727561070265,0.804907306847946,0.));
#713=CARTESIAN_POINT('',(-69.8727561070265,70.1549073068479,0.));
#714=CARTESIAN_POINT('',(-0.522756107026523,70.1549073068479,0.));
#715=CARTESIAN_POINT('',(68.8272438929735,70.154907306848,0.));
#716=CARTESIAN_POINT('',(68.8272438929735,0.804907306847952,0.));
#717=CARTESIAN_POINT('',(0.,0.,0.));
ENDSEC;
END-ISO-10303-21;
