ISO-10303-21;
HEADER;
/* Generated by software containing ST-Developer
 * from STEP Tools, Inc. (www.steptools.com) 
 */

FILE_DESCRIPTION(
/* description */ (''),
/* implementation_level */ '2;1');

FILE_NAME(
/* name */ 'C:\\Users\\JedrzejKozuch\\Desktop\\optimal BC\\Part13.stp',

/* time_stamp */ '2022-09-19T14:17:43+02:00',
/* author */ ('JedrzejKozuch'),
/* organization */ (''),
/* preprocessor_version */ 'ST-DEVELOPER v19',
/* originating_system */ 'Autodesk Inventor 2023',
/* authorisation */ '');

FILE_SCHEMA (('AUTOMOTIVE_DESIGN { 1 0 10303 214 3 1 1 }'));
ENDSEC;

DATA;
#10=MECHANICAL_DESIGN_GEOMETRIC_PRESENTATION_REPRESENTATION('',(#13),#261);
#11=SHAPE_REPRESENTATION_RELATIONSHIP('SRR','None',#272,#12);
#12=ADVANCED_BREP_SHAPE_REPRESENTATION('',(#14),#260);
#13=STYLED_ITEM('',(#281),#14);
#14=MANIFOLD_SOLID_BREP('Solid1',#145);
#15=CIRCLE('',#171,0.854775026711336);
#16=CIRCLE('',#172,0.854775026711336);
#17=CIRCLE('',#175,0.666570404847695);
#18=CIRCLE('',#176,0.666570404847695);
#19=CYLINDRICAL_SURFACE('',#170,0.854775026711336);
#20=CYLINDRICAL_SURFACE('',#174,0.666570404847695);
#21=FACE_OUTER_BOUND('',#29,.T.);
#22=FACE_OUTER_BOUND('',#30,.T.);
#23=FACE_OUTER_BOUND('',#31,.T.);
#24=FACE_OUTER_BOUND('',#32,.T.);
#25=FACE_OUTER_BOUND('',#33,.T.);
#26=FACE_OUTER_BOUND('',#34,.T.);
#27=FACE_OUTER_BOUND('',#35,.T.);
#28=FACE_OUTER_BOUND('',#36,.T.);
#29=EDGE_LOOP('',(#95,#96,#97,#98));
#30=EDGE_LOOP('',(#99,#100,#101,#102));
#31=EDGE_LOOP('',(#103,#104,#105,#106));
#32=EDGE_LOOP('',(#107,#108,#109,#110));
#33=EDGE_LOOP('',(#111,#112,#113,#114));
#34=EDGE_LOOP('',(#115,#116,#117,#118));
#35=EDGE_LOOP('',(#119,#120,#121,#122,#123,#124));
#36=EDGE_LOOP('',(#125,#126,#127,#128,#129,#130));
#37=LINE('',#223,#51);
#38=LINE('',#225,#52);
#39=LINE('',#227,#53);
#40=LINE('',#228,#54);
#41=LINE('',#231,#55);
#42=LINE('',#233,#56);
#43=LINE('',#234,#57);
#44=LINE('',#237,#58);
#45=LINE('',#239,#59);
#46=LINE('',#240,#60);
#47=LINE('',#246,#61);
#48=LINE('',#249,#62);
#49=LINE('',#251,#63);
#50=LINE('',#252,#64);
#51=VECTOR('',#183,0.393700787401575);
#52=VECTOR('',#184,0.393700787401575);
#53=VECTOR('',#185,0.393700787401575);
#54=VECTOR('',#186,0.393700787401575);
#55=VECTOR('',#189,0.393700787401575);
#56=VECTOR('',#190,0.393700787401575);
#57=VECTOR('',#191,0.393700787401575);
#58=VECTOR('',#194,0.393700787401575);
#59=VECTOR('',#195,0.393700787401575);
#60=VECTOR('',#196,0.393700787401575);
#61=VECTOR('',#203,0.393700787401575);
#62=VECTOR('',#206,0.393700787401575);
#63=VECTOR('',#207,0.393700787401575);
#64=VECTOR('',#208,0.393700787401575);
#65=VERTEX_POINT('',#221);
#66=VERTEX_POINT('',#222);
#67=VERTEX_POINT('',#224);
#68=VERTEX_POINT('',#226);
#69=VERTEX_POINT('',#230);
#70=VERTEX_POINT('',#232);
#71=VERTEX_POINT('',#236);
#72=VERTEX_POINT('',#238);
#73=VERTEX_POINT('',#242);
#74=VERTEX_POINT('',#244);
#75=VERTEX_POINT('',#248);
#76=VERTEX_POINT('',#250);
#77=EDGE_CURVE('',#65,#66,#37,.T.);
#78=EDGE_CURVE('',#66,#67,#38,.T.);
#79=EDGE_CURVE('',#68,#67,#39,.T.);
#80=EDGE_CURVE('',#65,#68,#40,.T.);
#81=EDGE_CURVE('',#69,#65,#41,.T.);
#82=EDGE_CURVE('',#70,#68,#42,.T.);
#83=EDGE_CURVE('',#69,#70,#43,.T.);
#84=EDGE_CURVE('',#71,#69,#44,.T.);
#85=EDGE_CURVE('',#72,#70,#45,.T.);
#86=EDGE_CURVE('',#71,#72,#46,.T.);
#87=EDGE_CURVE('',#73,#71,#15,.T.);
#88=EDGE_CURVE('',#74,#72,#16,.T.);
#89=EDGE_CURVE('',#73,#74,#47,.T.);
#90=EDGE_CURVE('',#75,#73,#48,.T.);
#91=EDGE_CURVE('',#76,#74,#49,.T.);
#92=EDGE_CURVE('',#75,#76,#50,.T.);
#93=EDGE_CURVE('',#66,#75,#17,.T.);
#94=EDGE_CURVE('',#67,#76,#18,.T.);
#95=ORIENTED_EDGE('',*,*,#77,.T.);
#96=ORIENTED_EDGE('',*,*,#78,.T.);
#97=ORIENTED_EDGE('',*,*,#79,.F.);
#98=ORIENTED_EDGE('',*,*,#80,.F.);
#99=ORIENTED_EDGE('',*,*,#81,.T.);
#100=ORIENTED_EDGE('',*,*,#80,.T.);
#101=ORIENTED_EDGE('',*,*,#82,.F.);
#102=ORIENTED_EDGE('',*,*,#83,.F.);
#103=ORIENTED_EDGE('',*,*,#84,.T.);
#104=ORIENTED_EDGE('',*,*,#83,.T.);
#105=ORIENTED_EDGE('',*,*,#85,.F.);
#106=ORIENTED_EDGE('',*,*,#86,.F.);
#107=ORIENTED_EDGE('',*,*,#87,.T.);
#108=ORIENTED_EDGE('',*,*,#86,.T.);
#109=ORIENTED_EDGE('',*,*,#88,.F.);
#110=ORIENTED_EDGE('',*,*,#89,.F.);
#111=ORIENTED_EDGE('',*,*,#90,.T.);
#112=ORIENTED_EDGE('',*,*,#89,.T.);
#113=ORIENTED_EDGE('',*,*,#91,.F.);
#114=ORIENTED_EDGE('',*,*,#92,.F.);
#115=ORIENTED_EDGE('',*,*,#93,.T.);
#116=ORIENTED_EDGE('',*,*,#92,.T.);
#117=ORIENTED_EDGE('',*,*,#94,.F.);
#118=ORIENTED_EDGE('',*,*,#78,.F.);
#119=ORIENTED_EDGE('',*,*,#94,.T.);
#120=ORIENTED_EDGE('',*,*,#91,.T.);
#121=ORIENTED_EDGE('',*,*,#88,.T.);
#122=ORIENTED_EDGE('',*,*,#85,.T.);
#123=ORIENTED_EDGE('',*,*,#82,.T.);
#124=ORIENTED_EDGE('',*,*,#79,.T.);
#125=ORIENTED_EDGE('',*,*,#93,.F.);
#126=ORIENTED_EDGE('',*,*,#77,.F.);
#127=ORIENTED_EDGE('',*,*,#81,.F.);
#128=ORIENTED_EDGE('',*,*,#84,.F.);
#129=ORIENTED_EDGE('',*,*,#87,.F.);
#130=ORIENTED_EDGE('',*,*,#90,.F.);
#131=PLANE('',#167);
#132=PLANE('',#168);
#133=PLANE('',#169);
#134=PLANE('',#173);
#135=PLANE('',#177);
#136=PLANE('',#178);
#137=ADVANCED_FACE('',(#21),#131,.T.);
#138=ADVANCED_FACE('',(#22),#132,.T.);
#139=ADVANCED_FACE('',(#23),#133,.T.);
#140=ADVANCED_FACE('',(#24),#19,.T.);
#141=ADVANCED_FACE('',(#25),#134,.T.);
#142=ADVANCED_FACE('',(#26),#20,.T.);
#143=ADVANCED_FACE('',(#27),#135,.T.);
#144=ADVANCED_FACE('',(#28),#136,.F.);
#145=CLOSED_SHELL('',(#137,#138,#139,#140,#141,#142,#143,#144));
#146=DERIVED_UNIT_ELEMENT(#148,1.);
#147=DERIVED_UNIT_ELEMENT(#266,-3.);
#148=(
CONVERSION_BASED_UNIT('gram',#150)
MASS_UNIT()
NAMED_UNIT(#263)
);
#149=(
MASS_UNIT()
NAMED_UNIT(*)
SI_UNIT(.KILO.,.GRAM.)
);
#150=MASS_MEASURE_WITH_UNIT(MASS_MEASURE(0.001),#149);
#151=DERIVED_UNIT((#146,#147));
#152=MEASURE_REPRESENTATION_ITEM('density measure',
POSITIVE_RATIO_MEASURE(1.),#151);
#153=PROPERTY_DEFINITION_REPRESENTATION(#158,#155);
#154=PROPERTY_DEFINITION_REPRESENTATION(#159,#156);
#155=REPRESENTATION('material name',(#157),#260);
#156=REPRESENTATION('density',(#152),#260);
#157=DESCRIPTIVE_REPRESENTATION_ITEM('Generic','Generic');
#158=PROPERTY_DEFINITION('material property','material name',#274);
#159=PROPERTY_DEFINITION('material property','density of part',#274);
#160=DATE_TIME_ROLE('creation_date');
#161=APPLIED_DATE_AND_TIME_ASSIGNMENT(#162,#160,(#274));
#162=DATE_AND_TIME(#163,#164);
#163=CALENDAR_DATE(2022,19,9);
#164=LOCAL_TIME(0,0,0.,#165);
#165=COORDINATED_UNIVERSAL_TIME_OFFSET(0,0,.BEHIND.);
#166=AXIS2_PLACEMENT_3D('placement',#219,#179,#180);
#167=AXIS2_PLACEMENT_3D('',#220,#181,#182);
#168=AXIS2_PLACEMENT_3D('',#229,#187,#188);
#169=AXIS2_PLACEMENT_3D('',#235,#192,#193);
#170=AXIS2_PLACEMENT_3D('',#241,#197,#198);
#171=AXIS2_PLACEMENT_3D('',#243,#199,#200);
#172=AXIS2_PLACEMENT_3D('',#245,#201,#202);
#173=AXIS2_PLACEMENT_3D('',#247,#204,#205);
#174=AXIS2_PLACEMENT_3D('',#253,#209,#210);
#175=AXIS2_PLACEMENT_3D('',#254,#211,#212);
#176=AXIS2_PLACEMENT_3D('',#255,#213,#214);
#177=AXIS2_PLACEMENT_3D('',#256,#215,#216);
#178=AXIS2_PLACEMENT_3D('',#257,#217,#218);
#179=DIRECTION('axis',(0.,0.,1.));
#180=DIRECTION('refdir',(1.,0.,0.));
#181=DIRECTION('center_axis',(-0.913691873599427,-0.406407628026799,0.));
#182=DIRECTION('ref_axis',(0.406407628026799,-0.913691873599427,0.));
#183=DIRECTION('',(0.406407628026799,-0.913691873599427,0.));
#184=DIRECTION('',(0.,0.,1.));
#185=DIRECTION('',(0.406407628026799,-0.913691873599427,0.));
#186=DIRECTION('',(0.,0.,1.));
#187=DIRECTION('center_axis',(-0.471582917193923,0.881821723598863,0.));
#188=DIRECTION('ref_axis',(-0.881821723598863,-0.471582917193923,0.));
#189=DIRECTION('',(-0.881821723598863,-0.471582917193923,0.));
#190=DIRECTION('',(-0.881821723598863,-0.471582917193923,0.));
#191=DIRECTION('',(0.,0.,1.));
#192=DIRECTION('center_axis',(0.602348032717169,0.798233579525289,0.));
#193=DIRECTION('ref_axis',(-0.798233579525289,0.602348032717169,0.));
#194=DIRECTION('',(-0.798233579525289,0.602348032717169,0.));
#195=DIRECTION('',(-0.798233579525289,0.602348032717169,0.));
#196=DIRECTION('',(0.,0.,1.));
#197=DIRECTION('center_axis',(0.,0.,1.));
#198=DIRECTION('ref_axis',(-0.282297815986119,-0.959326817664068,0.));
#199=DIRECTION('center_axis',(0.,0.,1.));
#200=DIRECTION('ref_axis',(-0.282297815986119,-0.959326817664068,0.));
#201=DIRECTION('center_axis',(0.,0.,1.));
#202=DIRECTION('ref_axis',(-0.282297815986119,-0.959326817664068,0.));
#203=DIRECTION('',(0.,0.,1.));
#204=DIRECTION('center_axis',(0.,-1.,0.));
#205=DIRECTION('ref_axis',(1.,0.,0.));
#206=DIRECTION('',(1.,0.,0.));
#207=DIRECTION('',(1.,0.,0.));
#208=DIRECTION('',(0.,0.,1.));
#209=DIRECTION('center_axis',(0.,0.,1.));
#210=DIRECTION('ref_axis',(-0.703602846770267,0.710593437921274,0.));
#211=DIRECTION('center_axis',(0.,0.,1.));
#212=DIRECTION('ref_axis',(-0.703602846770267,0.710593437921274,0.));
#213=DIRECTION('center_axis',(0.,0.,1.));
#214=DIRECTION('ref_axis',(-0.703602846770267,0.710593437921274,0.));
#215=DIRECTION('center_axis',(0.,0.,1.));
#216=DIRECTION('ref_axis',(1.,0.,0.));
#217=DIRECTION('center_axis',(0.,0.,1.));
#218=DIRECTION('ref_axis',(1.,0.,0.));
#219=CARTESIAN_POINT('',(0.,0.,0.));
#220=CARTESIAN_POINT('Origin',(-0.555320930738403,0.8257369648841,0.));
#221=CARTESIAN_POINT('',(-0.555320930738403,0.8257369648841,0.));
#222=CARTESIAN_POINT('',(-0.326468920450997,0.311228359148218,0.));
#223=CARTESIAN_POINT('',(-0.555320930738403,0.8257369648841,0.));
#224=CARTESIAN_POINT('',(-0.326468920450997,0.311228359148218,0.0625));
#225=CARTESIAN_POINT('',(-0.326468920450997,0.311228359148218,0.));
#226=CARTESIAN_POINT('',(-0.555320930738403,0.8257369648841,0.0625));
#227=CARTESIAN_POINT('',(-0.555320930738403,0.8257369648841,0.0625));
#228=CARTESIAN_POINT('',(-0.555320930738403,0.8257369648841,0.));
#229=CARTESIAN_POINT('Origin',(0.289546351965791,1.27755728996444,0.));
#230=CARTESIAN_POINT('',(0.289546351965791,1.27755728996444,0.));
#231=CARTESIAN_POINT('',(0.289546351965791,1.27755728996444,0.));
#232=CARTESIAN_POINT('',(0.289546351965791,1.27755728996444,0.0625));
#233=CARTESIAN_POINT('',(0.289546351965791,1.27755728996444,0.0625));
#234=CARTESIAN_POINT('',(0.289546351965791,1.27755728996444,0.));
#235=CARTESIAN_POINT('Origin',(0.888300121882241,0.8257369648841,0.));
#236=CARTESIAN_POINT('',(0.888300121882241,0.8257369648841,0.));
#237=CARTESIAN_POINT('',(0.888300121882241,0.8257369648841,0.));
#238=CARTESIAN_POINT('',(0.888300121882241,0.8257369648841,0.0625));
#239=CARTESIAN_POINT('',(0.888300121882241,0.8257369648841,0.0625));
#240=CARTESIAN_POINT('',(0.888300121882241,0.8257369648841,0.));
#241=CARTESIAN_POINT('Origin',(0.343507338566252,0.167070759939454,0.));
#242=CARTESIAN_POINT('',(0.102206215366165,-0.652937846254251,0.));
#243=CARTESIAN_POINT('Origin',(0.343507338566252,0.167070759939454,0.));
#244=CARTESIAN_POINT('',(0.102206215366165,-0.652937846254251,0.0625));
#245=CARTESIAN_POINT('Origin',(0.343507338566252,0.167070759939454,0.0625));
#246=CARTESIAN_POINT('',(0.102206215366165,-0.652937846254251,0.));
#247=CARTESIAN_POINT('Origin',(-0.308821951777971,-0.652937846254251,0.));
#248=CARTESIAN_POINT('',(-0.308821951777971,-0.652937846254251,0.));
#249=CARTESIAN_POINT('',(-0.308821951777971,-0.652937846254251,0.));
#250=CARTESIAN_POINT('',(-0.308821951777971,-0.652937846254251,0.0625));
#251=CARTESIAN_POINT('',(-0.308821951777971,-0.652937846254251,0.0625));
#252=CARTESIAN_POINT('',(-0.308821951777971,-0.652937846254251,0.));
#253=CARTESIAN_POINT('Origin',(0.14253191397265,-0.162432196449082,0.));
#254=CARTESIAN_POINT('Origin',(0.14253191397265,-0.162432196449082,0.));
#255=CARTESIAN_POINT('Origin',(0.14253191397265,-0.162432196449082,0.0625));
#256=CARTESIAN_POINT('Origin',(0.321480717269592,0.294926511596281,0.0625));
#257=CARTESIAN_POINT('Origin',(0.321480717269592,0.294926511596281,0.));
#258=UNCERTAINTY_MEASURE_WITH_UNIT(LENGTH_MEASURE(0.000393700787401575),
#264,'DISTANCE_ACCURACY_VALUE',
'Maximum model space distance between geometric entities at asserted c
onnectivities');
#259=UNCERTAINTY_MEASURE_WITH_UNIT(LENGTH_MEASURE(0.000393700787401575),
#264,'DISTANCE_ACCURACY_VALUE',
'Maximum model space distance between geometric entities at asserted c
onnectivities');
#260=(
GEOMETRIC_REPRESENTATION_CONTEXT(3)
GLOBAL_UNCERTAINTY_ASSIGNED_CONTEXT((#258))
GLOBAL_UNIT_ASSIGNED_CONTEXT((#264,#268,#269))
REPRESENTATION_CONTEXT('','3D')
);
#261=(
GEOMETRIC_REPRESENTATION_CONTEXT(3)
GLOBAL_UNCERTAINTY_ASSIGNED_CONTEXT((#259))
GLOBAL_UNIT_ASSIGNED_CONTEXT((#264,#268,#269))
REPRESENTATION_CONTEXT('','3D')
);
#262=DIMENSIONAL_EXPONENTS(1.,0.,0.,0.,0.,0.,0.);
#263=DIMENSIONAL_EXPONENTS(1.,0.,0.,0.,0.,0.,0.);
#264=(
CONVERSION_BASED_UNIT('inch',#267)
LENGTH_UNIT()
NAMED_UNIT(#262)
);
#265=(
LENGTH_UNIT()
NAMED_UNIT(*)
SI_UNIT(.MILLI.,.METRE.)
);
#266=(
LENGTH_UNIT()
NAMED_UNIT(*)
SI_UNIT(.CENTI.,.METRE.)
);
#267=LENGTH_MEASURE_WITH_UNIT(LENGTH_MEASURE(25.4),#265);
#268=(
NAMED_UNIT(*)
PLANE_ANGLE_UNIT()
SI_UNIT($,.RADIAN.)
);
#269=(
NAMED_UNIT(*)
SI_UNIT($,.STERADIAN.)
SOLID_ANGLE_UNIT()
);
#270=SHAPE_DEFINITION_REPRESENTATION(#271,#272);
#271=PRODUCT_DEFINITION_SHAPE('',$,#274);
#272=SHAPE_REPRESENTATION('',(#166),#260);
#273=PRODUCT_DEFINITION_CONTEXT('part definition',#278,'design');
#274=PRODUCT_DEFINITION('Part1','Part1',#275,#273);
#275=PRODUCT_DEFINITION_FORMATION('',$,#280);
#276=PRODUCT_RELATED_PRODUCT_CATEGORY('Part1','Part1',(#280));
#277=APPLICATION_PROTOCOL_DEFINITION('international standard',
'automotive_design',2009,#278);
#278=APPLICATION_CONTEXT(
'Core Data for Automotive Mechanical Design Process');
#279=PRODUCT_CONTEXT('part definition',#278,'mechanical');
#280=PRODUCT('Part1','Part1',$,(#279));
#281=PRESENTATION_STYLE_ASSIGNMENT((#282));
#282=SURFACE_STYLE_USAGE(.BOTH.,#285);
#283=SURFACE_STYLE_RENDERING_WITH_PROPERTIES($,#289,(#284));
#284=SURFACE_STYLE_TRANSPARENT(0.);
#285=SURFACE_SIDE_STYLE('',(#286,#283));
#286=SURFACE_STYLE_FILL_AREA(#287);
#287=FILL_AREA_STYLE('',(#288));
#288=FILL_AREA_STYLE_COLOUR('',#289);
#289=COLOUR_RGB('',0.749019607843137,0.749019607843137,0.749019607843137);
ENDSEC;
END-ISO-10303-21;
