ISO-10303-21;
HEADER;
/* Generated by software containing ST-Developer
 * from STEP Tools, Inc. (www.steptools.com) 
 */

FILE_DESCRIPTION(
/* description */ (''),
/* implementation_level */ '2;1');

FILE_NAME(
/* name */ 
'C:\\Users\\pschwitalla\\OneDrive - igus GmbH\\Documents\\190520_Platt
form Tribocut\\01_Instant Quoting\\L\X\D6SUNGEN\\Oroox\\03_CNC calcula
tion\\40_Calculations\\Pockets\\OPEN POCKET_02_NO Bound. walls, NO Int.
 fillets.stp',
/* time_stamp */ '2022-03-24T15:39:44+01:00',
/* author */ ('pschwitalla'),
/* organization */ ('igus GmbH'),
/* preprocessor_version */ 'ST-DEVELOPER v18.1',
/* originating_system */ 'Autodesk Inventor 2020',
/* authorisation */ '');

FILE_SCHEMA (('AUTOMOTIVE_DESIGN { 1 0 10303 214 3 1 1 }'));
ENDSEC;

DATA;
#10=MECHANICAL_DESIGN_GEOMETRIC_PRESENTATION_REPRESENTATION('',(#13),#317);
#11=SHAPE_REPRESENTATION_RELATIONSHIP('SRR','None',#324,#12);
#12=ADVANCED_BREP_SHAPE_REPRESENTATION('',(#14),#316);
#13=STYLED_ITEM('',(#333),#14);
#14=MANIFOLD_SOLID_BREP('Solid1',#189);
#15=CIRCLE('',#205,20.);
#16=CIRCLE('',#206,20.);
#17=CYLINDRICAL_SURFACE('',#204,20.);
#18=FACE_OUTER_BOUND('',#28,.T.);
#19=FACE_OUTER_BOUND('',#29,.T.);
#20=FACE_OUTER_BOUND('',#30,.T.);
#21=FACE_OUTER_BOUND('',#31,.T.);
#22=FACE_OUTER_BOUND('',#32,.T.);
#23=FACE_OUTER_BOUND('',#33,.T.);
#24=FACE_OUTER_BOUND('',#34,.T.);
#25=FACE_OUTER_BOUND('',#35,.T.);
#26=FACE_OUTER_BOUND('',#36,.T.);
#27=FACE_OUTER_BOUND('',#37,.T.);
#28=EDGE_LOOP('',(#122,#123,#124,#125));
#29=EDGE_LOOP('',(#126,#127,#128,#129));
#30=EDGE_LOOP('',(#130,#131,#132,#133));
#31=EDGE_LOOP('',(#134,#135,#136,#137,#138,#139));
#32=EDGE_LOOP('',(#140,#141,#142,#143,#144,#145));
#33=EDGE_LOOP('',(#146,#147,#148,#149,#150,#151));
#34=EDGE_LOOP('',(#152,#153,#154,#155));
#35=EDGE_LOOP('',(#156,#157,#158,#159,#160,#161));
#36=EDGE_LOOP('',(#162,#163,#164,#165));
#37=EDGE_LOOP('',(#166,#167,#168,#169));
#38=LINE('',#267,#60);
#39=LINE('',#269,#61);
#40=LINE('',#271,#62);
#41=LINE('',#272,#63);
#42=LINE('',#277,#64);
#43=LINE('',#281,#65);
#44=LINE('',#283,#66);
#45=LINE('',#284,#67);
#46=LINE('',#287,#68);
#47=LINE('',#289,#69);
#48=LINE('',#290,#70);
#49=LINE('',#293,#71);
#50=LINE('',#295,#72);
#51=LINE('',#296,#73);
#52=LINE('',#299,#74);
#53=LINE('',#301,#75);
#54=LINE('',#302,#76);
#55=LINE('',#305,#77);
#56=LINE('',#306,#78);
#57=LINE('',#309,#79);
#58=LINE('',#310,#80);
#59=LINE('',#312,#81);
#60=VECTOR('',#219,10.);
#61=VECTOR('',#220,10.);
#62=VECTOR('',#221,10.);
#63=VECTOR('',#222,10.);
#64=VECTOR('',#227,10.);
#65=VECTOR('',#232,10.);
#66=VECTOR('',#233,10.);
#67=VECTOR('',#234,10.);
#68=VECTOR('',#237,10.);
#69=VECTOR('',#238,10.);
#70=VECTOR('',#239,10.);
#71=VECTOR('',#242,10.);
#72=VECTOR('',#243,10.);
#73=VECTOR('',#244,10.);
#74=VECTOR('',#247,10.);
#75=VECTOR('',#248,10.);
#76=VECTOR('',#249,10.);
#77=VECTOR('',#252,10.);
#78=VECTOR('',#253,10.);
#79=VECTOR('',#256,10.);
#80=VECTOR('',#257,10.);
#81=VECTOR('',#260,10.);
#82=VERTEX_POINT('',#265);
#83=VERTEX_POINT('',#266);
#84=VERTEX_POINT('',#268);
#85=VERTEX_POINT('',#270);
#86=VERTEX_POINT('',#274);
#87=VERTEX_POINT('',#276);
#88=VERTEX_POINT('',#280);
#89=VERTEX_POINT('',#282);
#90=VERTEX_POINT('',#286);
#91=VERTEX_POINT('',#288);
#92=VERTEX_POINT('',#292);
#93=VERTEX_POINT('',#294);
#94=VERTEX_POINT('',#298);
#95=VERTEX_POINT('',#300);
#96=VERTEX_POINT('',#304);
#97=VERTEX_POINT('',#308);
#98=EDGE_CURVE('',#82,#83,#38,.T.);
#99=EDGE_CURVE('',#82,#84,#39,.T.);
#100=EDGE_CURVE('',#84,#85,#40,.T.);
#101=EDGE_CURVE('',#83,#85,#41,.T.);
#102=EDGE_CURVE('',#86,#82,#15,.T.);
#103=EDGE_CURVE('',#86,#87,#42,.T.);
#104=EDGE_CURVE('',#87,#84,#16,.T.);
#105=EDGE_CURVE('',#88,#86,#43,.T.);
#106=EDGE_CURVE('',#89,#88,#44,.T.);
#107=EDGE_CURVE('',#89,#87,#45,.T.);
#108=EDGE_CURVE('',#85,#90,#46,.T.);
#109=EDGE_CURVE('',#91,#89,#47,.T.);
#110=EDGE_CURVE('',#90,#91,#48,.T.);
#111=EDGE_CURVE('',#83,#92,#49,.T.);
#112=EDGE_CURVE('',#92,#93,#50,.T.);
#113=EDGE_CURVE('',#93,#88,#51,.T.);
#114=EDGE_CURVE('',#94,#90,#52,.T.);
#115=EDGE_CURVE('',#94,#95,#53,.T.);
#116=EDGE_CURVE('',#95,#92,#54,.T.);
#117=EDGE_CURVE('',#96,#91,#55,.T.);
#118=EDGE_CURVE('',#96,#94,#56,.T.);
#119=EDGE_CURVE('',#97,#93,#57,.T.);
#120=EDGE_CURVE('',#97,#96,#58,.T.);
#121=EDGE_CURVE('',#95,#97,#59,.T.);
#122=ORIENTED_EDGE('',*,*,#98,.F.);
#123=ORIENTED_EDGE('',*,*,#99,.T.);
#124=ORIENTED_EDGE('',*,*,#100,.T.);
#125=ORIENTED_EDGE('',*,*,#101,.F.);
#126=ORIENTED_EDGE('',*,*,#102,.F.);
#127=ORIENTED_EDGE('',*,*,#103,.T.);
#128=ORIENTED_EDGE('',*,*,#104,.T.);
#129=ORIENTED_EDGE('',*,*,#99,.F.);
#130=ORIENTED_EDGE('',*,*,#105,.F.);
#131=ORIENTED_EDGE('',*,*,#106,.F.);
#132=ORIENTED_EDGE('',*,*,#107,.T.);
#133=ORIENTED_EDGE('',*,*,#103,.F.);
#134=ORIENTED_EDGE('',*,*,#108,.F.);
#135=ORIENTED_EDGE('',*,*,#100,.F.);
#136=ORIENTED_EDGE('',*,*,#104,.F.);
#137=ORIENTED_EDGE('',*,*,#107,.F.);
#138=ORIENTED_EDGE('',*,*,#109,.F.);
#139=ORIENTED_EDGE('',*,*,#110,.F.);
#140=ORIENTED_EDGE('',*,*,#105,.T.);
#141=ORIENTED_EDGE('',*,*,#102,.T.);
#142=ORIENTED_EDGE('',*,*,#98,.T.);
#143=ORIENTED_EDGE('',*,*,#111,.T.);
#144=ORIENTED_EDGE('',*,*,#112,.T.);
#145=ORIENTED_EDGE('',*,*,#113,.T.);
#146=ORIENTED_EDGE('',*,*,#101,.T.);
#147=ORIENTED_EDGE('',*,*,#108,.T.);
#148=ORIENTED_EDGE('',*,*,#114,.F.);
#149=ORIENTED_EDGE('',*,*,#115,.T.);
#150=ORIENTED_EDGE('',*,*,#116,.T.);
#151=ORIENTED_EDGE('',*,*,#111,.F.);
#152=ORIENTED_EDGE('',*,*,#110,.T.);
#153=ORIENTED_EDGE('',*,*,#117,.F.);
#154=ORIENTED_EDGE('',*,*,#118,.T.);
#155=ORIENTED_EDGE('',*,*,#114,.T.);
#156=ORIENTED_EDGE('',*,*,#106,.T.);
#157=ORIENTED_EDGE('',*,*,#113,.F.);
#158=ORIENTED_EDGE('',*,*,#119,.F.);
#159=ORIENTED_EDGE('',*,*,#120,.T.);
#160=ORIENTED_EDGE('',*,*,#117,.T.);
#161=ORIENTED_EDGE('',*,*,#109,.T.);
#162=ORIENTED_EDGE('',*,*,#121,.T.);
#163=ORIENTED_EDGE('',*,*,#119,.T.);
#164=ORIENTED_EDGE('',*,*,#112,.F.);
#165=ORIENTED_EDGE('',*,*,#116,.F.);
#166=ORIENTED_EDGE('',*,*,#121,.F.);
#167=ORIENTED_EDGE('',*,*,#115,.F.);
#168=ORIENTED_EDGE('',*,*,#118,.F.);
#169=ORIENTED_EDGE('',*,*,#120,.F.);
#170=PLANE('',#203);
#171=PLANE('',#207);
#172=PLANE('',#208);
#173=PLANE('',#209);
#174=PLANE('',#210);
#175=PLANE('',#211);
#176=PLANE('',#212);
#177=PLANE('',#213);
#178=PLANE('',#214);
#179=ADVANCED_FACE('',(#18),#170,.F.);
#180=ADVANCED_FACE('',(#19),#17,.T.);
#181=ADVANCED_FACE('',(#20),#171,.F.);
#182=ADVANCED_FACE('',(#21),#172,.T.);
#183=ADVANCED_FACE('',(#22),#173,.T.);
#184=ADVANCED_FACE('',(#23),#174,.T.);
#185=ADVANCED_FACE('',(#24),#175,.T.);
#186=ADVANCED_FACE('',(#25),#176,.T.);
#187=ADVANCED_FACE('',(#26),#177,.T.);
#188=ADVANCED_FACE('',(#27),#178,.F.);
#189=CLOSED_SHELL('',(#179,#180,#181,#182,#183,#184,#185,#186,#187,#188));
#190=DERIVED_UNIT_ELEMENT(#192,1.);
#191=DERIVED_UNIT_ELEMENT(#319,3.);
#192=(
MASS_UNIT()
NAMED_UNIT(*)
SI_UNIT($,.GRAM.)
);
#193=DERIVED_UNIT((#190,#191));
#194=MEASURE_REPRESENTATION_ITEM('density measure',
POSITIVE_RATIO_MEASURE(1.),#193);
#195=PROPERTY_DEFINITION_REPRESENTATION(#200,#197);
#196=PROPERTY_DEFINITION_REPRESENTATION(#201,#198);
#197=REPRESENTATION('material name',(#199),#316);
#198=REPRESENTATION('density',(#194),#316);
#199=DESCRIPTIVE_REPRESENTATION_ITEM('Generic','Generic');
#200=PROPERTY_DEFINITION('material property','material name',#326);
#201=PROPERTY_DEFINITION('material property','density of part',#326);
#202=AXIS2_PLACEMENT_3D('placement',#263,#215,#216);
#203=AXIS2_PLACEMENT_3D('',#264,#217,#218);
#204=AXIS2_PLACEMENT_3D('',#273,#223,#224);
#205=AXIS2_PLACEMENT_3D('',#275,#225,#226);
#206=AXIS2_PLACEMENT_3D('',#278,#228,#229);
#207=AXIS2_PLACEMENT_3D('',#279,#230,#231);
#208=AXIS2_PLACEMENT_3D('',#285,#235,#236);
#209=AXIS2_PLACEMENT_3D('',#291,#240,#241);
#210=AXIS2_PLACEMENT_3D('',#297,#245,#246);
#211=AXIS2_PLACEMENT_3D('',#303,#250,#251);
#212=AXIS2_PLACEMENT_3D('',#307,#254,#255);
#213=AXIS2_PLACEMENT_3D('',#311,#258,#259);
#214=AXIS2_PLACEMENT_3D('',#313,#261,#262);
#215=DIRECTION('axis',(0.,0.,1.));
#216=DIRECTION('refdir',(1.,0.,0.));
#217=DIRECTION('center_axis',(1.,1.92438657601694E-16,0.));
#218=DIRECTION('ref_axis',(1.92438657601694E-16,-1.,-2.22044604925031E-16));
#219=DIRECTION('',(1.92438657601694E-16,-1.,-2.22044604925031E-16));
#220=DIRECTION('',(0.,0.,-1.));
#221=DIRECTION('',(1.92438657601694E-16,-1.,-2.22044604925031E-16));
#222=DIRECTION('',(-4.27299656994715E-32,2.22044604925031E-16,-1.));
#223=DIRECTION('center_axis',(0.,0.,-1.));
#224=DIRECTION('ref_axis',(0.6,-0.8,0.));
#225=DIRECTION('center_axis',(0.,-2.22044604925031E-16,1.));
#226=DIRECTION('ref_axis',(0.6,-0.8,0.));
#227=DIRECTION('',(0.,0.,-1.));
#228=DIRECTION('center_axis',(-1.23259516440783E-32,-2.22044604925031E-16,
1.));
#229=DIRECTION('ref_axis',(0.6,-0.8,-1.77635683940025E-16));
#230=DIRECTION('center_axis',(0.6,-0.8,0.));
#231=DIRECTION('ref_axis',(-0.8,-0.6,-1.33226762955019E-16));
#232=DIRECTION('',(-0.8,-0.6,-1.33226762955019E-16));
#233=DIRECTION('',(-2.96059473233375E-16,-2.22044604925031E-16,1.));
#234=DIRECTION('',(-0.8,-0.6,-1.33226762955019E-16));
#235=DIRECTION('center_axis',(0.,-2.22044604925031E-16,1.));
#236=DIRECTION('ref_axis',(1.,0.,0.));
#237=DIRECTION('',(-1.,-2.368475785867E-16,-5.25907270147341E-32));
#238=DIRECTION('',(1.,2.368475785867E-16,5.25907270147341E-32));
#239=DIRECTION('',(0.,1.,2.22044604925031E-16));
#240=DIRECTION('center_axis',(0.,-2.22044604925031E-16,1.));
#241=DIRECTION('ref_axis',(0.,-1.,-2.22044604925031E-16));
#242=DIRECTION('',(1.,2.368475785867E-16,5.25907270147341E-32));
#243=DIRECTION('',(-2.66453525910038E-16,1.,2.22044604925031E-16));
#244=DIRECTION('',(-1.,-2.368475785867E-16,-5.25907270147341E-32));
#245=DIRECTION('center_axis',(2.368475785867E-16,-1.,-2.22044604925031E-16));
#246=DIRECTION('ref_axis',(1.,2.368475785867E-16,5.25907270147341E-32));
#247=DIRECTION('',(0.,-2.22044604925031E-16,1.));
#248=DIRECTION('',(1.,2.368475785867E-16,5.25907270147341E-32));
#249=DIRECTION('',(0.,-2.22044604925031E-16,1.));
#250=DIRECTION('center_axis',(-1.,0.,0.));
#251=DIRECTION('ref_axis',(0.,-1.,-2.22044604925031E-16));
#252=DIRECTION('',(0.,-2.22044604925031E-16,1.));
#253=DIRECTION('',(0.,-1.,-2.22044604925031E-16));
#254=DIRECTION('center_axis',(-2.368475785867E-16,1.,2.22044604925031E-16));
#255=DIRECTION('ref_axis',(-1.,-2.368475785867E-16,-5.25907270147341E-32));
#256=DIRECTION('',(0.,-2.22044604925031E-16,1.));
#257=DIRECTION('',(-1.,-2.368475785867E-16,-5.25907270147341E-32));
#258=DIRECTION('center_axis',(1.,2.66453525910038E-16,5.91645678915759E-32));
#259=DIRECTION('ref_axis',(-2.66453525910038E-16,1.,2.22044604925031E-16));
#260=DIRECTION('',(-2.66453525910038E-16,1.,2.22044604925031E-16));
#261=DIRECTION('center_axis',(0.,-2.22044604925031E-16,1.));
#262=DIRECTION('ref_axis',(0.,-1.,-2.22044604925031E-16));
#263=CARTESIAN_POINT('',(0.,0.,0.));
#264=CARTESIAN_POINT('Origin',(-52.3338271708079,-1.77635683940025E-14,
22.0014771048744));
#265=CARTESIAN_POINT('',(-52.3338271708079,-1.77635683940025E-14,22.0014771048744));
#266=CARTESIAN_POINT('',(-52.3338271708078,-100.,22.0014771048744));
#267=CARTESIAN_POINT('',(-52.3338271708079,-1.95769326675569E-14,22.0014771048744));
#268=CARTESIAN_POINT('',(-52.3338271708079,-1.77635683940025E-14,7.00147710487443));
#269=CARTESIAN_POINT('',(-52.3338271708079,-1.77635683940025E-14,22.0014771048744));
#270=CARTESIAN_POINT('',(-52.3338271708078,-100.,7.0014771048744));
#271=CARTESIAN_POINT('',(-52.3338271708078,-100.,7.0014771048744));
#272=CARTESIAN_POINT('',(-52.3338271708078,-100.,4.5014771048744));
#273=CARTESIAN_POINT('Origin',(-32.3338271708079,-3.5527136788005E-14,22.0014771048744));
#274=CARTESIAN_POINT('',(-44.3338271708079,16.,22.0014771048744));
#275=CARTESIAN_POINT('Origin',(-32.3338271708079,-3.5527136788005E-14,22.0014771048744));
#276=CARTESIAN_POINT('',(-44.3338271708079,16.,7.00147710487443));
#277=CARTESIAN_POINT('',(-44.3338271708079,16.,22.0014771048744));
#278=CARTESIAN_POINT('Origin',(-32.3338271708079,-3.5527136788005E-14,7.00147710487443));
#279=CARTESIAN_POINT('Origin',(67.6661728291921,100.,22.0014771048744));
#280=CARTESIAN_POINT('',(67.6661728291921,100.,22.0014771048744));
#281=CARTESIAN_POINT('',(26.0661728291922,68.8,22.0014771048744));
#282=CARTESIAN_POINT('',(67.6661728291921,100.,7.00147710487445));
#283=CARTESIAN_POINT('',(67.6661728291921,100.,4.50147710487444));
#284=CARTESIAN_POINT('',(-44.3338271708079,16.,7.00147710487443));
#285=CARTESIAN_POINT('Origin',(2.66617282919215,-1.75162308040602E-45,7.00147710487443));
#286=CARTESIAN_POINT('',(-62.3338271708079,-100.,7.0014771048744));
#287=CARTESIAN_POINT('',(-29.8338271708078,-100.,7.0014771048744));
#288=CARTESIAN_POINT('',(-62.3338271708079,100.,7.00147710487445));
#289=CARTESIAN_POINT('',(45.1661728291921,100.,7.00147710487445));
#290=CARTESIAN_POINT('',(-62.3338271708079,50.,7.00147710487444));
#291=CARTESIAN_POINT('Origin',(12.6661728291922,-8.88178419700125E-15,22.0014771048744));
#292=CARTESIAN_POINT('',(87.6661728291922,-100.,22.0014771048744));
#293=CARTESIAN_POINT('',(-62.3338271708079,-100.,22.0014771048744));
#294=CARTESIAN_POINT('',(87.6661728291922,100.,22.0014771048745));
#295=CARTESIAN_POINT('',(87.6661728291922,-100.,22.0014771048744));
#296=CARTESIAN_POINT('',(87.6661728291922,100.,22.0014771048745));
#297=CARTESIAN_POINT('Origin',(-62.3338271708079,-100.,-12.9985228951256));
#298=CARTESIAN_POINT('',(-62.3338271708079,-100.,-12.9985228951256));
#299=CARTESIAN_POINT('',(-62.3338271708079,-100.,-12.9985228951256));
#300=CARTESIAN_POINT('',(87.6661728291922,-100.,-12.9985228951256));
#301=CARTESIAN_POINT('',(-62.3338271708079,-100.,-12.9985228951256));
#302=CARTESIAN_POINT('',(87.6661728291922,-100.,-12.9985228951256));
#303=CARTESIAN_POINT('Origin',(-62.3338271708079,100.,-12.9985228951256));
#304=CARTESIAN_POINT('',(-62.3338271708079,100.,-12.9985228951256));
#305=CARTESIAN_POINT('',(-62.3338271708079,100.,-12.9985228951256));
#306=CARTESIAN_POINT('',(-62.3338271708079,100.,-12.9985228951256));
#307=CARTESIAN_POINT('Origin',(87.6661728291922,100.,-12.9985228951256));
#308=CARTESIAN_POINT('',(87.6661728291922,100.,-12.9985228951256));
#309=CARTESIAN_POINT('',(87.6661728291922,100.,-12.9985228951256));
#310=CARTESIAN_POINT('',(87.6661728291922,100.,-12.9985228951256));
#311=CARTESIAN_POINT('Origin',(87.6661728291922,-100.,-12.9985228951256));
#312=CARTESIAN_POINT('',(87.6661728291922,-100.,-12.9985228951256));
#313=CARTESIAN_POINT('Origin',(12.6661728291922,-2.22044604925031E-15,-12.9985228951256));
#314=UNCERTAINTY_MEASURE_WITH_UNIT(LENGTH_MEASURE(0.01),#318,
'DISTANCE_ACCURACY_VALUE',
'Maximum model space distance between geometric entities at asserted c
onnectivities');
#315=UNCERTAINTY_MEASURE_WITH_UNIT(LENGTH_MEASURE(0.01),#318,
'DISTANCE_ACCURACY_VALUE',
'Maximum model space distance between geometric entities at asserted c
onnectivities');
#316=(
GEOMETRIC_REPRESENTATION_CONTEXT(3)
GLOBAL_UNCERTAINTY_ASSIGNED_CONTEXT((#314))
GLOBAL_UNIT_ASSIGNED_CONTEXT((#318,#320,#321))
REPRESENTATION_CONTEXT('','3D')
);
#317=(
GEOMETRIC_REPRESENTATION_CONTEXT(3)
GLOBAL_UNCERTAINTY_ASSIGNED_CONTEXT((#315))
GLOBAL_UNIT_ASSIGNED_CONTEXT((#318,#320,#321))
REPRESENTATION_CONTEXT('','3D')
);
#318=(
LENGTH_UNIT()
NAMED_UNIT(*)
SI_UNIT(.MILLI.,.METRE.)
);
#319=(
LENGTH_UNIT()
NAMED_UNIT(*)
SI_UNIT(.CENTI.,.METRE.)
);
#320=(
NAMED_UNIT(*)
PLANE_ANGLE_UNIT()
SI_UNIT($,.RADIAN.)
);
#321=(
NAMED_UNIT(*)
SI_UNIT($,.STERADIAN.)
SOLID_ANGLE_UNIT()
);
#322=SHAPE_DEFINITION_REPRESENTATION(#323,#324);
#323=PRODUCT_DEFINITION_SHAPE('',$,#326);
#324=SHAPE_REPRESENTATION('',(#202),#316);
#325=PRODUCT_DEFINITION_CONTEXT('part definition',#330,'design');
#326=PRODUCT_DEFINITION('Open pocket_3 walls',
'OPEN POCKET_02_NO Bound. walls, NO Int. fillets',#327,#325);
#327=PRODUCT_DEFINITION_FORMATION('',$,#332);
#328=PRODUCT_RELATED_PRODUCT_CATEGORY(
'OPEN POCKET_02_NO Bound. walls, NO Int. fillets',
'OPEN POCKET_02_NO Bound. walls, NO Int. fillets',(#332));
#329=APPLICATION_PROTOCOL_DEFINITION('international standard',
'automotive_design',2009,#330);
#330=APPLICATION_CONTEXT(
'Core Data for Automotive Mechanical Design Process');
#331=PRODUCT_CONTEXT('part definition',#330,'mechanical');
#332=PRODUCT('Open pocket_3 walls',
'OPEN POCKET_02_NO Bound. walls, NO Int. fillets',$,(#331));
#333=PRESENTATION_STYLE_ASSIGNMENT((#334));
#334=SURFACE_STYLE_USAGE(.BOTH.,#337);
#335=SURFACE_STYLE_RENDERING_WITH_PROPERTIES($,#341,(#336));
#336=SURFACE_STYLE_TRANSPARENT(0.);
#337=SURFACE_SIDE_STYLE('',(#338,#335));
#338=SURFACE_STYLE_FILL_AREA(#339);
#339=FILL_AREA_STYLE('',(#340));
#340=FILL_AREA_STYLE_COLOUR('',#341);
#341=COLOUR_RGB('',0.749019607843137,0.749019607843137,0.749019607843137);
ENDSEC;
END-ISO-10303-21;
