ISO-10303-21;
HEADER;
/* Generated by software containing ST-Developer
 * from STEP Tools, Inc. (www.steptools.com) 
 */

FILE_DESCRIPTION(
/* description */ (''),
/* implementation_level */ '2;1');

FILE_NAME(
/* name */ 
'C:\\Users\\AndrzejPapierok\\Desktop\\Rules\\Top edge fillets\\TOP EDG
E FILLETS_01_R15_long_v01_with_hole.stp',
/* time_stamp */ '2022-05-11T09:12:17+02:00',
/* author */ ('AndrzejPapierok'),
/* organization */ ('igus GmbH'),
/* preprocessor_version */ 'ST-DEVELOPER v19',
/* originating_system */ 'Autodesk Inventor 2023',
/* authorisation */ '');

FILE_SCHEMA (('AUTOMOTIVE_DESIGN { 1 0 10303 214 3 1 1 }'));
ENDSEC;

DATA;
#10=MECHANICAL_DESIGN_GEOMETRIC_PRESENTATION_REPRESENTATION('',(#13),#285);
#11=SHAPE_REPRESENTATION_RELATIONSHIP('SRR','None',#292,#12);
#12=ADVANCED_BREP_SHAPE_REPRESENTATION('',(#14),#284);
#13=STYLED_ITEM('',(#301),#14);
#14=MANIFOLD_SOLID_BREP('Solid1',#163);
#15=FACE_BOUND('',#38,.T.);
#16=FACE_BOUND('',#44,.T.);
#17=PLANE('',#188);
#18=PLANE('',#189);
#19=PLANE('',#190);
#20=PLANE('',#191);
#21=PLANE('',#192);
#22=PLANE('',#193);
#23=CYLINDRICAL_SURFACE('',#183,3.5);
#24=CYLINDRICAL_SURFACE('',#185,15.);
#25=FACE_OUTER_BOUND('',#34,.T.);
#26=FACE_OUTER_BOUND('',#35,.T.);
#27=FACE_OUTER_BOUND('',#36,.T.);
#28=FACE_OUTER_BOUND('',#37,.T.);
#29=FACE_OUTER_BOUND('',#39,.T.);
#30=FACE_OUTER_BOUND('',#40,.T.);
#31=FACE_OUTER_BOUND('',#41,.T.);
#32=FACE_OUTER_BOUND('',#42,.T.);
#33=FACE_OUTER_BOUND('',#43,.T.);
#34=EDGE_LOOP('',(#113,#114,#115,#116));
#35=EDGE_LOOP('',(#117,#118,#119,#120));
#36=EDGE_LOOP('',(#121,#122,#123,#124));
#37=EDGE_LOOP('',(#125,#126,#127,#128));
#38=EDGE_LOOP('',(#129));
#39=EDGE_LOOP('',(#130,#131,#132,#133,#134));
#40=EDGE_LOOP('',(#135,#136,#137,#138,#139));
#41=EDGE_LOOP('',(#140,#141,#142,#143));
#42=EDGE_LOOP('',(#144,#145,#146,#147));
#43=EDGE_LOOP('',(#148,#149,#150,#151));
#44=EDGE_LOOP('',(#152));
#45=LINE('',#244,#60);
#46=LINE('',#248,#61);
#47=LINE('',#255,#62);
#48=LINE('',#258,#63);
#49=LINE('',#261,#64);
#50=LINE('',#263,#65);
#51=LINE('',#264,#66);
#52=LINE('',#267,#67);
#53=LINE('',#269,#68);
#54=LINE('',#270,#69);
#55=LINE('',#273,#70);
#56=LINE('',#275,#71);
#57=LINE('',#276,#72);
#58=LINE('',#278,#73);
#59=LINE('',#280,#74);
#60=VECTOR('',#200,4.75);
#61=VECTOR('',#205,3.5);
#62=VECTOR('',#212,10.);
#63=VECTOR('',#215,10.);
#64=VECTOR('',#218,10.);
#65=VECTOR('',#219,10.);
#66=VECTOR('',#220,10.);
#67=VECTOR('',#223,10.);
#68=VECTOR('',#224,10.);
#69=VECTOR('',#225,10.);
#70=VECTOR('',#228,10.);
#71=VECTOR('',#229,10.);
#72=VECTOR('',#230,10.);
#73=VECTOR('',#233,10.);
#74=VECTOR('',#236,10.);
#75=CIRCLE('',#181,6.);
#76=CIRCLE('',#182,3.5);
#77=CIRCLE('',#184,3.5);
#78=CIRCLE('',#186,15.);
#79=CIRCLE('',#187,15.);
#80=VERTEX_POINT('',#241);
#81=VERTEX_POINT('',#243);
#82=VERTEX_POINT('',#247);
#83=VERTEX_POINT('',#251);
#84=VERTEX_POINT('',#252);
#85=VERTEX_POINT('',#254);
#86=VERTEX_POINT('',#256);
#87=VERTEX_POINT('',#260);
#88=VERTEX_POINT('',#262);
#89=VERTEX_POINT('',#266);
#90=VERTEX_POINT('',#268);
#91=VERTEX_POINT('',#272);
#92=VERTEX_POINT('',#274);
#93=EDGE_CURVE('',#80,#80,#75,.T.);
#94=EDGE_CURVE('',#80,#81,#45,.T.);
#95=EDGE_CURVE('',#81,#81,#76,.T.);
#96=EDGE_CURVE('',#81,#82,#46,.T.);
#97=EDGE_CURVE('',#82,#82,#77,.T.);
#98=EDGE_CURVE('',#83,#84,#78,.T.);
#99=EDGE_CURVE('',#84,#85,#47,.T.);
#100=EDGE_CURVE('',#85,#86,#79,.T.);
#101=EDGE_CURVE('',#86,#83,#48,.T.);
#102=EDGE_CURVE('',#84,#87,#49,.T.);
#103=EDGE_CURVE('',#87,#88,#50,.T.);
#104=EDGE_CURVE('',#88,#85,#51,.T.);
#105=EDGE_CURVE('',#89,#83,#52,.T.);
#106=EDGE_CURVE('',#89,#90,#53,.T.);
#107=EDGE_CURVE('',#90,#87,#54,.T.);
#108=EDGE_CURVE('',#91,#88,#55,.T.);
#109=EDGE_CURVE('',#91,#92,#56,.T.);
#110=EDGE_CURVE('',#92,#86,#57,.T.);
#111=EDGE_CURVE('',#90,#91,#58,.T.);
#112=EDGE_CURVE('',#92,#89,#59,.T.);
#113=ORIENTED_EDGE('',*,*,#93,.F.);
#114=ORIENTED_EDGE('',*,*,#94,.T.);
#115=ORIENTED_EDGE('',*,*,#95,.F.);
#116=ORIENTED_EDGE('',*,*,#94,.F.);
#117=ORIENTED_EDGE('',*,*,#95,.T.);
#118=ORIENTED_EDGE('',*,*,#96,.T.);
#119=ORIENTED_EDGE('',*,*,#97,.F.);
#120=ORIENTED_EDGE('',*,*,#96,.F.);
#121=ORIENTED_EDGE('',*,*,#98,.T.);
#122=ORIENTED_EDGE('',*,*,#99,.T.);
#123=ORIENTED_EDGE('',*,*,#100,.T.);
#124=ORIENTED_EDGE('',*,*,#101,.T.);
#125=ORIENTED_EDGE('',*,*,#99,.F.);
#126=ORIENTED_EDGE('',*,*,#102,.T.);
#127=ORIENTED_EDGE('',*,*,#103,.T.);
#128=ORIENTED_EDGE('',*,*,#104,.T.);
#129=ORIENTED_EDGE('',*,*,#93,.T.);
#130=ORIENTED_EDGE('',*,*,#98,.F.);
#131=ORIENTED_EDGE('',*,*,#105,.F.);
#132=ORIENTED_EDGE('',*,*,#106,.T.);
#133=ORIENTED_EDGE('',*,*,#107,.T.);
#134=ORIENTED_EDGE('',*,*,#102,.F.);
#135=ORIENTED_EDGE('',*,*,#100,.F.);
#136=ORIENTED_EDGE('',*,*,#104,.F.);
#137=ORIENTED_EDGE('',*,*,#108,.F.);
#138=ORIENTED_EDGE('',*,*,#109,.T.);
#139=ORIENTED_EDGE('',*,*,#110,.T.);
#140=ORIENTED_EDGE('',*,*,#111,.T.);
#141=ORIENTED_EDGE('',*,*,#108,.T.);
#142=ORIENTED_EDGE('',*,*,#103,.F.);
#143=ORIENTED_EDGE('',*,*,#107,.F.);
#144=ORIENTED_EDGE('',*,*,#101,.F.);
#145=ORIENTED_EDGE('',*,*,#110,.F.);
#146=ORIENTED_EDGE('',*,*,#112,.T.);
#147=ORIENTED_EDGE('',*,*,#105,.T.);
#148=ORIENTED_EDGE('',*,*,#112,.F.);
#149=ORIENTED_EDGE('',*,*,#109,.F.);
#150=ORIENTED_EDGE('',*,*,#111,.F.);
#151=ORIENTED_EDGE('',*,*,#106,.F.);
#152=ORIENTED_EDGE('',*,*,#97,.T.);
#153=CONICAL_SURFACE('',#180,4.75,0.785398163397448);
#154=ADVANCED_FACE('',(#25),#153,.F.);
#155=ADVANCED_FACE('',(#26),#23,.F.);
#156=ADVANCED_FACE('',(#27),#24,.T.);
#157=ADVANCED_FACE('',(#28,#15),#17,.T.);
#158=ADVANCED_FACE('',(#29),#18,.T.);
#159=ADVANCED_FACE('',(#30),#19,.T.);
#160=ADVANCED_FACE('',(#31),#20,.T.);
#161=ADVANCED_FACE('',(#32),#21,.T.);
#162=ADVANCED_FACE('',(#33,#16),#22,.F.);
#163=CLOSED_SHELL('',(#154,#155,#156,#157,#158,#159,#160,#161,#162));
#164=DERIVED_UNIT_ELEMENT(#167,1.);
#165=DERIVED_UNIT_ELEMENT(#287,-3.);
#166=DIMENSIONAL_EXPONENTS(1.,0.,0.,0.,0.,0.,0.);
#167=(
CONVERSION_BASED_UNIT('gram',#169)
MASS_UNIT()
NAMED_UNIT(#166)
);
#168=(
MASS_UNIT()
NAMED_UNIT(*)
SI_UNIT(.KILO.,.GRAM.)
);
#169=MASS_MEASURE_WITH_UNIT(MASS_MEASURE(0.001),#168);
#170=DERIVED_UNIT((#164,#165));
#171=MEASURE_REPRESENTATION_ITEM('density measure',
POSITIVE_RATIO_MEASURE(1.),#170);
#172=PROPERTY_DEFINITION_REPRESENTATION(#177,#174);
#173=PROPERTY_DEFINITION_REPRESENTATION(#178,#175);
#174=REPRESENTATION('material name',(#176),#284);
#175=REPRESENTATION('density',(#171),#284);
#176=DESCRIPTIVE_REPRESENTATION_ITEM('Generic','Generic');
#177=PROPERTY_DEFINITION('material property','material name',#294);
#178=PROPERTY_DEFINITION('material property','density of part',#294);
#179=AXIS2_PLACEMENT_3D('placement',#239,#194,#195);
#180=AXIS2_PLACEMENT_3D('',#240,#196,#197);
#181=AXIS2_PLACEMENT_3D('',#242,#198,#199);
#182=AXIS2_PLACEMENT_3D('',#245,#201,#202);
#183=AXIS2_PLACEMENT_3D('',#246,#203,#204);
#184=AXIS2_PLACEMENT_3D('',#249,#206,#207);
#185=AXIS2_PLACEMENT_3D('',#250,#208,#209);
#186=AXIS2_PLACEMENT_3D('',#253,#210,#211);
#187=AXIS2_PLACEMENT_3D('',#257,#213,#214);
#188=AXIS2_PLACEMENT_3D('',#259,#216,#217);
#189=AXIS2_PLACEMENT_3D('',#265,#221,#222);
#190=AXIS2_PLACEMENT_3D('',#271,#226,#227);
#191=AXIS2_PLACEMENT_3D('',#277,#231,#232);
#192=AXIS2_PLACEMENT_3D('',#279,#234,#235);
#193=AXIS2_PLACEMENT_3D('',#281,#237,#238);
#194=DIRECTION('axis',(0.,0.,1.));
#195=DIRECTION('refdir',(1.,0.,0.));
#196=DIRECTION('center_axis',(0.,-2.22044604925031E-16,1.));
#197=DIRECTION('ref_axis',(1.,2.96059473233375E-16,6.57384087684176E-32));
#198=DIRECTION('center_axis',(0.,2.22044604925031E-16,-1.));
#199=DIRECTION('ref_axis',(1.,2.96059473233375E-16,6.57384087684176E-32));
#200=DIRECTION('',(0.707106781186547,4.52950512649763E-16,-0.707106781186547));
#201=DIRECTION('center_axis',(0.,-2.22044604925031E-16,1.));
#202=DIRECTION('ref_axis',(1.,2.96059473233375E-16,6.57384087684176E-32));
#203=DIRECTION('center_axis',(0.,-2.22044604925031E-16,1.));
#204=DIRECTION('ref_axis',(1.,2.96059473233375E-16,6.57384087684176E-32));
#205=DIRECTION('',(0.,2.22044604925031E-16,-1.));
#206=DIRECTION('center_axis',(0.,-2.22044604925031E-16,1.));
#207=DIRECTION('ref_axis',(1.,2.96059473233375E-16,6.57384087684176E-32));
#208=DIRECTION('center_axis',(-2.368475785867E-16,1.,2.22044604925031E-16));
#209=DIRECTION('ref_axis',(0.707106781186548,2.09345661157837E-16,0.707106781186547));
#210=DIRECTION('center_axis',(0.,-1.,-2.22044604925031E-16));
#211=DIRECTION('ref_axis',(0.707106781186548,2.09345661157837E-16,0.707106781186547));
#212=DIRECTION('',(2.368475785867E-16,-1.,-2.22044604925031E-16));
#213=DIRECTION('center_axis',(-2.96059473233375E-16,1.,2.22044604925031E-16));
#214=DIRECTION('ref_axis',(0.707106781186548,2.09345661157837E-16,0.707106781186547));
#215=DIRECTION('',(-2.368475785867E-16,1.,2.22044604925031E-16));
#216=DIRECTION('center_axis',(0.,-2.22044604925031E-16,1.));
#217=DIRECTION('ref_axis',(0.,-1.,-2.22044604925031E-16));
#218=DIRECTION('',(-1.,0.,0.));
#219=DIRECTION('',(2.96059473233375E-16,-1.,-2.22044604925031E-16));
#220=DIRECTION('',(1.,2.96059473233375E-16,6.57384087684176E-32));
#221=DIRECTION('center_axis',(0.,1.,2.22044604925031E-16));
#222=DIRECTION('ref_axis',(-1.,0.,0.));
#223=DIRECTION('',(0.,-2.22044604925031E-16,1.));
#224=DIRECTION('',(-1.,0.,0.));
#225=DIRECTION('',(0.,-2.22044604925031E-16,1.));
#226=DIRECTION('center_axis',(2.96059473233375E-16,-1.,-2.22044604925031E-16));
#227=DIRECTION('ref_axis',(1.,2.96059473233375E-16,6.57384087684176E-32));
#228=DIRECTION('',(0.,-2.22044604925031E-16,1.));
#229=DIRECTION('',(1.,2.96059473233375E-16,6.57384087684176E-32));
#230=DIRECTION('',(0.,-2.22044604925031E-16,1.));
#231=DIRECTION('center_axis',(-1.,-2.96059473233375E-16,-6.57384087684176E-32));
#232=DIRECTION('ref_axis',(2.96059473233375E-16,-1.,-2.22044604925031E-16));
#233=DIRECTION('',(2.96059473233375E-16,-1.,-2.22044604925031E-16));
#234=DIRECTION('center_axis',(1.,2.368475785867E-16,5.25907270147341E-32));
#235=DIRECTION('ref_axis',(-2.368475785867E-16,1.,2.22044604925031E-16));
#236=DIRECTION('',(-2.368475785867E-16,1.,2.22044604925031E-16));
#237=DIRECTION('center_axis',(0.,-2.22044604925031E-16,1.));
#238=DIRECTION('ref_axis',(0.,-1.,-2.22044604925031E-16));
#239=CARTESIAN_POINT('',(0.,0.,0.));
#240=CARTESIAN_POINT('Origin',(65.6686196219222,21.1052599734342,-39.2485228951256));
#241=CARTESIAN_POINT('',(59.6686196219222,21.1052599734342,-37.9985228951256));
#242=CARTESIAN_POINT('Origin',(65.6686196219222,21.1052599734342,-37.9985228951256));
#243=CARTESIAN_POINT('',(62.1686196219222,21.1052599734342,-40.4985228951256));
#244=CARTESIAN_POINT('',(60.9186196219222,21.1052599734342,-39.2485228951256));
#245=CARTESIAN_POINT('Origin',(65.6686196219222,21.1052599734342,-40.4985228951256));
#246=CARTESIAN_POINT('Origin',(65.6686196219222,21.1052599734342,-47.9985228951256));
#247=CARTESIAN_POINT('',(62.1686196219222,21.1052599734342,-57.9985228951256));
#248=CARTESIAN_POINT('',(62.1686196219222,21.1052599734342,-47.9985228951256));
#249=CARTESIAN_POINT('Origin',(65.6686196219222,21.1052599734342,-57.9985228951256));
#250=CARTESIAN_POINT('Origin',(72.6661728291922,-17.5,-52.9985228951256));
#251=CARTESIAN_POINT('',(87.6661728291922,95.,-52.9985228951256));
#252=CARTESIAN_POINT('',(72.6661728291922,95.,-37.9985228951256));
#253=CARTESIAN_POINT('Origin',(72.6661728291922,95.,-52.9985228951256));
#254=CARTESIAN_POINT('',(72.6661728291922,-55.,-37.9985228951256));
#255=CARTESIAN_POINT('',(72.6661728291922,-17.5,-37.9985228951256));
#256=CARTESIAN_POINT('',(87.6661728291922,-55.,-52.9985228951256));
#257=CARTESIAN_POINT('Origin',(72.6661728291922,-55.,-52.9985228951256));
#258=CARTESIAN_POINT('',(87.6661728291922,-17.5,-52.9985228951256));
#259=CARTESIAN_POINT('Origin',(72.6661728291922,20.,-37.9985228951256));
#260=CARTESIAN_POINT('',(57.6661728291922,95.,-37.9985228951256));
#261=CARTESIAN_POINT('',(87.6661728291922,95.,-37.9985228951256));
#262=CARTESIAN_POINT('',(57.6661728291922,-55.,-37.9985228951256));
#263=CARTESIAN_POINT('',(57.6661728291922,95.,-37.9985228951256));
#264=CARTESIAN_POINT('',(57.6661728291922,-55.,-37.9985228951256));
#265=CARTESIAN_POINT('Origin',(87.6661728291922,95.,-57.9985228951256));
#266=CARTESIAN_POINT('',(87.6661728291922,95.,-57.9985228951256));
#267=CARTESIAN_POINT('',(87.6661728291922,95.,-57.9985228951256));
#268=CARTESIAN_POINT('',(57.6661728291922,95.,-57.9985228951256));
#269=CARTESIAN_POINT('',(87.6661728291922,95.,-57.9985228951256));
#270=CARTESIAN_POINT('',(57.6661728291922,95.,-57.9985228951256));
#271=CARTESIAN_POINT('Origin',(57.6661728291922,-55.,-57.9985228951256));
#272=CARTESIAN_POINT('',(57.6661728291922,-55.,-57.9985228951256));
#273=CARTESIAN_POINT('',(57.6661728291922,-55.,-57.9985228951256));
#274=CARTESIAN_POINT('',(87.6661728291922,-55.,-57.9985228951256));
#275=CARTESIAN_POINT('',(57.6661728291922,-55.,-57.9985228951256));
#276=CARTESIAN_POINT('',(87.6661728291922,-55.,-57.9985228951256));
#277=CARTESIAN_POINT('Origin',(57.6661728291922,95.,-57.9985228951256));
#278=CARTESIAN_POINT('',(57.6661728291922,95.,-57.9985228951256));
#279=CARTESIAN_POINT('Origin',(87.6661728291922,-55.,-57.9985228951256));
#280=CARTESIAN_POINT('',(87.6661728291922,-55.,-57.9985228951256));
#281=CARTESIAN_POINT('Origin',(72.6661728291922,20.,-57.9985228951256));
#282=UNCERTAINTY_MEASURE_WITH_UNIT(LENGTH_MEASURE(0.01),#286,
'DISTANCE_ACCURACY_VALUE',
'Maximum model space distance between geometric entities at asserted c
onnectivities');
#283=UNCERTAINTY_MEASURE_WITH_UNIT(LENGTH_MEASURE(0.01),#286,
'DISTANCE_ACCURACY_VALUE',
'Maximum model space distance between geometric entities at asserted c
onnectivities');
#284=(
GEOMETRIC_REPRESENTATION_CONTEXT(3)
GLOBAL_UNCERTAINTY_ASSIGNED_CONTEXT((#282))
GLOBAL_UNIT_ASSIGNED_CONTEXT((#286,#288,#289))
REPRESENTATION_CONTEXT('','3D')
);
#285=(
GEOMETRIC_REPRESENTATION_CONTEXT(3)
GLOBAL_UNCERTAINTY_ASSIGNED_CONTEXT((#283))
GLOBAL_UNIT_ASSIGNED_CONTEXT((#286,#288,#289))
REPRESENTATION_CONTEXT('','3D')
);
#286=(
LENGTH_UNIT()
NAMED_UNIT(*)
SI_UNIT(.MILLI.,.METRE.)
);
#287=(
LENGTH_UNIT()
NAMED_UNIT(*)
SI_UNIT(.CENTI.,.METRE.)
);
#288=(
NAMED_UNIT(*)
PLANE_ANGLE_UNIT()
SI_UNIT($,.RADIAN.)
);
#289=(
NAMED_UNIT(*)
SI_UNIT($,.STERADIAN.)
SOLID_ANGLE_UNIT()
);
#290=SHAPE_DEFINITION_REPRESENTATION(#291,#292);
#291=PRODUCT_DEFINITION_SHAPE('',$,#294);
#292=SHAPE_REPRESENTATION('',(#179),#284);
#293=PRODUCT_DEFINITION_CONTEXT('part definition',#298,'design');
#294=PRODUCT_DEFINITION('01_Chamfer_as Chamfer_big_v01',
'TOP EDGE FILLETS_01_R15_long_v01',#295,#293);
#295=PRODUCT_DEFINITION_FORMATION('',$,#300);
#296=PRODUCT_RELATED_PRODUCT_CATEGORY(
'TOP EDGE FILLETS_01_R15_long_v01','TOP EDGE FILLETS_01_R15_long_v01',(#300));
#297=APPLICATION_PROTOCOL_DEFINITION('international standard',
'automotive_design',2009,#298);
#298=APPLICATION_CONTEXT(
'Core Data for Automotive Mechanical Design Process');
#299=PRODUCT_CONTEXT('part definition',#298,'mechanical');
#300=PRODUCT('01_Chamfer_as Chamfer_big_v01',
'TOP EDGE FILLETS_01_R15_long_v01',$,(#299));
#301=PRESENTATION_STYLE_ASSIGNMENT((#302));
#302=SURFACE_STYLE_USAGE(.BOTH.,#305);
#303=SURFACE_STYLE_RENDERING_WITH_PROPERTIES($,#309,(#304));
#304=SURFACE_STYLE_TRANSPARENT(0.);
#305=SURFACE_SIDE_STYLE('',(#306,#303));
#306=SURFACE_STYLE_FILL_AREA(#307);
#307=FILL_AREA_STYLE('',(#308));
#308=FILL_AREA_STYLE_COLOUR('',#309);
#309=COLOUR_RGB('',0.749019607843137,0.749019607843137,0.749019607843137);
ENDSEC;
END-ISO-10303-21;
