ISO-10303-21;
HEADER;
/* Generated by software containing ST-Developer
 * from STEP Tools, Inc. (www.steptools.com) 
 */

FILE_DESCRIPTION(
/* description */ (''),
/* implementation_level */ '2;1');

FILE_NAME(
/* name */ 'C:/work/AnalysisSitus/data/cad/blends/0091_boxblend.step',
/* time_stamp */ '2021-09-30T13:57:40+03:00',
/* author */ (''),
/* organization */ (''),
/* preprocessor_version */ 'ST-DEVELOPER v18.1',
/* originating_system */ 'Autodesk Translation Framework v10.10.0.1391',

/* authorisation */ '');

FILE_SCHEMA (('AUTOMOTIVE_DESIGN { 1 0 10303 214 3 1 1 }'));
ENDSEC;

DATA;
#10=MECHANICAL_DESIGN_GEOMETRIC_PRESENTATION_REPRESENTATION('',(#13),#425);
#11=SHAPE_REPRESENTATION_RELATIONSHIP('SRR','None',#432,#12);
#12=ADVANCED_BREP_SHAPE_REPRESENTATION('',(#14),#424);
#13=STYLED_ITEM('',(#441),#14);
#14=MANIFOLD_SOLID_BREP('Body1',#253);
#15=FACE_BOUND('',#49,.T.);
#16=PLANE('',#275);
#17=PLANE('',#276);
#18=PLANE('',#277);
#19=PLANE('',#278);
#20=PLANE('',#279);
#21=PLANE('',#280);
#22=PLANE('',#281);
#23=PLANE('',#282);
#24=PLANE('',#283);
#25=PLANE('',#284);
#26=PLANE('',#285);
#27=FACE_OUTER_BOUND('',#42,.T.);
#28=FACE_OUTER_BOUND('',#43,.T.);
#29=FACE_OUTER_BOUND('',#44,.T.);
#30=FACE_OUTER_BOUND('',#45,.T.);
#31=FACE_OUTER_BOUND('',#46,.T.);
#32=FACE_OUTER_BOUND('',#47,.T.);
#33=FACE_OUTER_BOUND('',#48,.T.);
#34=FACE_OUTER_BOUND('',#50,.T.);
#35=FACE_OUTER_BOUND('',#51,.T.);
#36=FACE_OUTER_BOUND('',#52,.T.);
#37=FACE_OUTER_BOUND('',#53,.T.);
#38=FACE_OUTER_BOUND('',#54,.T.);
#39=FACE_OUTER_BOUND('',#55,.T.);
#40=FACE_OUTER_BOUND('',#56,.T.);
#41=FACE_OUTER_BOUND('',#57,.T.);
#42=EDGE_LOOP('',(#170,#171,#172,#173));
#43=EDGE_LOOP('',(#174,#175,#176,#177));
#44=EDGE_LOOP('',(#178,#179,#180,#181));
#45=EDGE_LOOP('',(#182,#183,#184,#185));
#46=EDGE_LOOP('',(#186,#187,#188,#189));
#47=EDGE_LOOP('',(#190,#191,#192,#193));
#48=EDGE_LOOP('',(#194,#195,#196,#197));
#49=EDGE_LOOP('',(#198,#199,#200,#201));
#50=EDGE_LOOP('',(#202,#203,#204,#205));
#51=EDGE_LOOP('',(#206,#207,#208,#209));
#52=EDGE_LOOP('',(#210,#211,#212,#213));
#53=EDGE_LOOP('',(#214,#215,#216,#217));
#54=EDGE_LOOP('',(#218,#219,#220,#221));
#55=EDGE_LOOP('',(#222,#223,#224,#225));
#56=EDGE_LOOP('',(#226,#227,#228,#229));
#57=EDGE_LOOP('',(#230,#231,#232,#233));
#58=ELLIPSE('',#268,7.07106781186548,5.);
#59=ELLIPSE('',#269,7.07106781186548,5.);
#60=ELLIPSE('',#271,7.07106781186548,5.);
#61=ELLIPSE('',#273,7.07106781186548,5.);
#62=LINE('',#358,#90);
#63=LINE('',#362,#91);
#64=LINE('',#366,#92);
#65=LINE('',#369,#93);
#66=LINE('',#372,#94);
#67=LINE('',#374,#95);
#68=LINE('',#377,#96);
#69=LINE('',#378,#97);
#70=LINE('',#381,#98);
#71=LINE('',#383,#99);
#72=LINE('',#384,#100);
#73=LINE('',#387,#101);
#74=LINE('',#388,#102);
#75=LINE('',#392,#103);
#76=LINE('',#394,#104);
#77=LINE('',#396,#105);
#78=LINE('',#397,#106);
#79=LINE('',#400,#107);
#80=LINE('',#401,#108);
#81=LINE('',#403,#109);
#82=LINE('',#408,#110);
#83=LINE('',#409,#111);
#84=LINE('',#410,#112);
#85=LINE('',#413,#113);
#86=LINE('',#414,#114);
#87=LINE('',#417,#115);
#88=LINE('',#418,#116);
#89=LINE('',#420,#117);
#90=VECTOR('',#290,10.);
#91=VECTOR('',#293,10.);
#92=VECTOR('',#298,10.);
#93=VECTOR('',#301,10.);
#94=VECTOR('',#304,10.);
#95=VECTOR('',#305,10.);
#96=VECTOR('',#310,10.);
#97=VECTOR('',#311,10.);
#98=VECTOR('',#314,10.);
#99=VECTOR('',#315,10.);
#100=VECTOR('',#316,10.);
#101=VECTOR('',#319,10.);
#102=VECTOR('',#320,10.);
#103=VECTOR('',#323,10.);
#104=VECTOR('',#324,10.);
#105=VECTOR('',#325,10.);
#106=VECTOR('',#326,10.);
#107=VECTOR('',#329,10.);
#108=VECTOR('',#330,10.);
#109=VECTOR('',#333,10.);
#110=VECTOR('',#338,10.);
#111=VECTOR('',#339,10.);
#112=VECTOR('',#340,10.);
#113=VECTOR('',#343,10.);
#114=VECTOR('',#344,10.);
#115=VECTOR('',#347,10.);
#116=VECTOR('',#348,10.);
#117=VECTOR('',#351,10.);
#118=VERTEX_POINT('',#356);
#119=VERTEX_POINT('',#357);
#120=VERTEX_POINT('',#359);
#121=VERTEX_POINT('',#361);
#122=VERTEX_POINT('',#365);
#123=VERTEX_POINT('',#367);
#124=VERTEX_POINT('',#371);
#125=VERTEX_POINT('',#373);
#126=VERTEX_POINT('',#380);
#127=VERTEX_POINT('',#382);
#128=VERTEX_POINT('',#386);
#129=VERTEX_POINT('',#390);
#130=VERTEX_POINT('',#391);
#131=VERTEX_POINT('',#393);
#132=VERTEX_POINT('',#395);
#133=VERTEX_POINT('',#399);
#134=VERTEX_POINT('',#406);
#135=VERTEX_POINT('',#407);
#136=VERTEX_POINT('',#412);
#137=VERTEX_POINT('',#416);
#138=EDGE_CURVE('',#118,#119,#62,.T.);
#139=EDGE_CURVE('',#119,#120,#58,.T.);
#140=EDGE_CURVE('',#120,#121,#63,.T.);
#141=EDGE_CURVE('',#121,#118,#59,.T.);
#142=EDGE_CURVE('',#121,#122,#64,.T.);
#143=EDGE_CURVE('',#122,#123,#60,.T.);
#144=EDGE_CURVE('',#123,#118,#65,.T.);
#145=EDGE_CURVE('',#124,#123,#66,.T.);
#146=EDGE_CURVE('',#122,#125,#67,.T.);
#147=EDGE_CURVE('',#125,#124,#61,.T.);
#148=EDGE_CURVE('',#119,#124,#68,.T.);
#149=EDGE_CURVE('',#125,#120,#69,.T.);
#150=EDGE_CURVE('',#121,#126,#70,.T.);
#151=EDGE_CURVE('',#127,#126,#71,.T.);
#152=EDGE_CURVE('',#122,#127,#72,.T.);
#153=EDGE_CURVE('',#120,#128,#73,.T.);
#154=EDGE_CURVE('',#126,#128,#74,.T.);
#155=EDGE_CURVE('',#129,#130,#75,.T.);
#156=EDGE_CURVE('',#130,#131,#76,.T.);
#157=EDGE_CURVE('',#131,#132,#77,.T.);
#158=EDGE_CURVE('',#132,#129,#78,.T.);
#159=EDGE_CURVE('',#133,#127,#79,.T.);
#160=EDGE_CURVE('',#125,#133,#80,.T.);
#161=EDGE_CURVE('',#128,#133,#81,.T.);
#162=EDGE_CURVE('',#134,#135,#82,.T.);
#163=EDGE_CURVE('',#134,#129,#83,.T.);
#164=EDGE_CURVE('',#135,#132,#84,.T.);
#165=EDGE_CURVE('',#135,#136,#85,.T.);
#166=EDGE_CURVE('',#136,#131,#86,.T.);
#167=EDGE_CURVE('',#136,#137,#87,.T.);
#168=EDGE_CURVE('',#137,#130,#88,.T.);
#169=EDGE_CURVE('',#137,#134,#89,.T.);
#170=ORIENTED_EDGE('',*,*,#138,.T.);
#171=ORIENTED_EDGE('',*,*,#139,.T.);
#172=ORIENTED_EDGE('',*,*,#140,.T.);
#173=ORIENTED_EDGE('',*,*,#141,.T.);
#174=ORIENTED_EDGE('',*,*,#142,.T.);
#175=ORIENTED_EDGE('',*,*,#143,.T.);
#176=ORIENTED_EDGE('',*,*,#144,.T.);
#177=ORIENTED_EDGE('',*,*,#141,.F.);
#178=ORIENTED_EDGE('',*,*,#145,.T.);
#179=ORIENTED_EDGE('',*,*,#143,.F.);
#180=ORIENTED_EDGE('',*,*,#146,.T.);
#181=ORIENTED_EDGE('',*,*,#147,.T.);
#182=ORIENTED_EDGE('',*,*,#148,.T.);
#183=ORIENTED_EDGE('',*,*,#147,.F.);
#184=ORIENTED_EDGE('',*,*,#149,.T.);
#185=ORIENTED_EDGE('',*,*,#139,.F.);
#186=ORIENTED_EDGE('',*,*,#142,.F.);
#187=ORIENTED_EDGE('',*,*,#150,.T.);
#188=ORIENTED_EDGE('',*,*,#151,.F.);
#189=ORIENTED_EDGE('',*,*,#152,.F.);
#190=ORIENTED_EDGE('',*,*,#140,.F.);
#191=ORIENTED_EDGE('',*,*,#153,.T.);
#192=ORIENTED_EDGE('',*,*,#154,.F.);
#193=ORIENTED_EDGE('',*,*,#150,.F.);
#194=ORIENTED_EDGE('',*,*,#155,.T.);
#195=ORIENTED_EDGE('',*,*,#156,.T.);
#196=ORIENTED_EDGE('',*,*,#157,.T.);
#197=ORIENTED_EDGE('',*,*,#158,.T.);
#198=ORIENTED_EDGE('',*,*,#138,.F.);
#199=ORIENTED_EDGE('',*,*,#144,.F.);
#200=ORIENTED_EDGE('',*,*,#145,.F.);
#201=ORIENTED_EDGE('',*,*,#148,.F.);
#202=ORIENTED_EDGE('',*,*,#146,.F.);
#203=ORIENTED_EDGE('',*,*,#152,.T.);
#204=ORIENTED_EDGE('',*,*,#159,.F.);
#205=ORIENTED_EDGE('',*,*,#160,.F.);
#206=ORIENTED_EDGE('',*,*,#149,.F.);
#207=ORIENTED_EDGE('',*,*,#160,.T.);
#208=ORIENTED_EDGE('',*,*,#161,.F.);
#209=ORIENTED_EDGE('',*,*,#153,.F.);
#210=ORIENTED_EDGE('',*,*,#161,.T.);
#211=ORIENTED_EDGE('',*,*,#159,.T.);
#212=ORIENTED_EDGE('',*,*,#151,.T.);
#213=ORIENTED_EDGE('',*,*,#154,.T.);
#214=ORIENTED_EDGE('',*,*,#162,.F.);
#215=ORIENTED_EDGE('',*,*,#163,.T.);
#216=ORIENTED_EDGE('',*,*,#158,.F.);
#217=ORIENTED_EDGE('',*,*,#164,.F.);
#218=ORIENTED_EDGE('',*,*,#165,.F.);
#219=ORIENTED_EDGE('',*,*,#164,.T.);
#220=ORIENTED_EDGE('',*,*,#157,.F.);
#221=ORIENTED_EDGE('',*,*,#166,.F.);
#222=ORIENTED_EDGE('',*,*,#167,.F.);
#223=ORIENTED_EDGE('',*,*,#166,.T.);
#224=ORIENTED_EDGE('',*,*,#156,.F.);
#225=ORIENTED_EDGE('',*,*,#168,.F.);
#226=ORIENTED_EDGE('',*,*,#169,.F.);
#227=ORIENTED_EDGE('',*,*,#168,.T.);
#228=ORIENTED_EDGE('',*,*,#155,.F.);
#229=ORIENTED_EDGE('',*,*,#163,.F.);
#230=ORIENTED_EDGE('',*,*,#169,.T.);
#231=ORIENTED_EDGE('',*,*,#162,.T.);
#232=ORIENTED_EDGE('',*,*,#165,.T.);
#233=ORIENTED_EDGE('',*,*,#167,.T.);
#234=CYLINDRICAL_SURFACE('',#267,5.);
#235=CYLINDRICAL_SURFACE('',#270,5.);
#236=CYLINDRICAL_SURFACE('',#272,5.);
#237=CYLINDRICAL_SURFACE('',#274,5.);
#238=ADVANCED_FACE('',(#27),#234,.F.);
#239=ADVANCED_FACE('',(#28),#235,.F.);
#240=ADVANCED_FACE('',(#29),#236,.F.);
#241=ADVANCED_FACE('',(#30),#237,.F.);
#242=ADVANCED_FACE('',(#31),#16,.T.);
#243=ADVANCED_FACE('',(#32),#17,.T.);
#244=ADVANCED_FACE('',(#33,#15),#18,.T.);
#245=ADVANCED_FACE('',(#34),#19,.T.);
#246=ADVANCED_FACE('',(#35),#20,.T.);
#247=ADVANCED_FACE('',(#36),#21,.T.);
#248=ADVANCED_FACE('',(#37),#22,.T.);
#249=ADVANCED_FACE('',(#38),#23,.T.);
#250=ADVANCED_FACE('',(#39),#24,.T.);
#251=ADVANCED_FACE('',(#40),#25,.T.);
#252=ADVANCED_FACE('',(#41),#26,.F.);
#253=CLOSED_SHELL('',(#238,#239,#240,#241,#242,#243,#244,#245,#246,#247,
#248,#249,#250,#251,#252));
#254=DERIVED_UNIT_ELEMENT(#256,1.);
#255=DERIVED_UNIT_ELEMENT(#427,-3.);
#256=(
MASS_UNIT()
NAMED_UNIT(*)
SI_UNIT(.KILO.,.GRAM.)
);
#257=DERIVED_UNIT((#254,#255));
#258=MEASURE_REPRESENTATION_ITEM('density measure',
POSITIVE_RATIO_MEASURE(7850.),#257);
#259=PROPERTY_DEFINITION_REPRESENTATION(#264,#261);
#260=PROPERTY_DEFINITION_REPRESENTATION(#265,#262);
#261=REPRESENTATION('material name',(#263),#424);
#262=REPRESENTATION('density',(#258),#424);
#263=DESCRIPTIVE_REPRESENTATION_ITEM('Steel','Steel');
#264=PROPERTY_DEFINITION('material property','material name',#434);
#265=PROPERTY_DEFINITION('material property','density of part',#434);
#266=AXIS2_PLACEMENT_3D('placement',#354,#286,#287);
#267=AXIS2_PLACEMENT_3D('',#355,#288,#289);
#268=AXIS2_PLACEMENT_3D('',#360,#291,#292);
#269=AXIS2_PLACEMENT_3D('',#363,#294,#295);
#270=AXIS2_PLACEMENT_3D('',#364,#296,#297);
#271=AXIS2_PLACEMENT_3D('',#368,#299,#300);
#272=AXIS2_PLACEMENT_3D('',#370,#302,#303);
#273=AXIS2_PLACEMENT_3D('',#375,#306,#307);
#274=AXIS2_PLACEMENT_3D('',#376,#308,#309);
#275=AXIS2_PLACEMENT_3D('',#379,#312,#313);
#276=AXIS2_PLACEMENT_3D('',#385,#317,#318);
#277=AXIS2_PLACEMENT_3D('',#389,#321,#322);
#278=AXIS2_PLACEMENT_3D('',#398,#327,#328);
#279=AXIS2_PLACEMENT_3D('',#402,#331,#332);
#280=AXIS2_PLACEMENT_3D('',#404,#334,#335);
#281=AXIS2_PLACEMENT_3D('',#405,#336,#337);
#282=AXIS2_PLACEMENT_3D('',#411,#341,#342);
#283=AXIS2_PLACEMENT_3D('',#415,#345,#346);
#284=AXIS2_PLACEMENT_3D('',#419,#349,#350);
#285=AXIS2_PLACEMENT_3D('',#421,#352,#353);
#286=DIRECTION('axis',(0.,0.,1.));
#287=DIRECTION('refdir',(1.,0.,0.));
#288=DIRECTION('center_axis',(0.,1.,0.));
#289=DIRECTION('ref_axis',(0.707106781186547,0.,-0.707106781186547));
#290=DIRECTION('',(0.,-1.,0.));
#291=DIRECTION('center_axis',(0.707106781186548,-0.707106781186548,0.));
#292=DIRECTION('ref_axis',(-0.707106781186547,-0.707106781186547,0.));
#293=DIRECTION('',(0.,1.,0.));
#294=DIRECTION('center_axis',(0.707106781186548,0.707106781186548,0.));
#295=DIRECTION('ref_axis',(0.707106781186547,-0.707106781186547,0.));
#296=DIRECTION('center_axis',(1.,0.,0.));
#297=DIRECTION('ref_axis',(0.,-0.707106781186547,-0.707106781186547));
#298=DIRECTION('',(1.,0.,0.));
#299=DIRECTION('center_axis',(0.707106781186548,-0.707106781186548,0.));
#300=DIRECTION('ref_axis',(-0.707106781186547,-0.707106781186547,0.));
#301=DIRECTION('',(-1.,0.,0.));
#302=DIRECTION('center_axis',(0.,-1.,0.));
#303=DIRECTION('ref_axis',(-0.707106781186547,0.,-0.707106781186547));
#304=DIRECTION('',(0.,1.,0.));
#305=DIRECTION('',(0.,-1.,0.));
#306=DIRECTION('center_axis',(-0.707106781186548,-0.707106781186548,0.));
#307=DIRECTION('ref_axis',(-0.707106781186547,0.707106781186547,0.));
#308=DIRECTION('center_axis',(-1.,0.,0.));
#309=DIRECTION('ref_axis',(0.,0.707106781186547,-0.707106781186547));
#310=DIRECTION('',(1.,0.,0.));
#311=DIRECTION('',(-1.,0.,0.));
#312=DIRECTION('center_axis',(0.,1.,0.));
#313=DIRECTION('ref_axis',(-1.,0.,0.));
#314=DIRECTION('',(0.,0.,1.));
#315=DIRECTION('',(-1.,0.,0.));
#316=DIRECTION('',(0.,0.,1.));
#317=DIRECTION('center_axis',(-1.,0.,0.));
#318=DIRECTION('ref_axis',(0.,-1.,0.));
#319=DIRECTION('',(0.,0.,1.));
#320=DIRECTION('',(0.,-1.,0.));
#321=DIRECTION('center_axis',(0.,0.,1.));
#322=DIRECTION('ref_axis',(1.,0.,0.));
#323=DIRECTION('',(1.,0.,0.));
#324=DIRECTION('',(0.,1.,0.));
#325=DIRECTION('',(-1.,0.,0.));
#326=DIRECTION('',(0.,-1.,0.));
#327=DIRECTION('center_axis',(1.,0.,0.));
#328=DIRECTION('ref_axis',(0.,1.,0.));
#329=DIRECTION('',(0.,1.,0.));
#330=DIRECTION('',(0.,0.,1.));
#331=DIRECTION('center_axis',(0.,-1.,0.));
#332=DIRECTION('ref_axis',(1.,0.,0.));
#333=DIRECTION('',(1.,0.,0.));
#334=DIRECTION('center_axis',(0.,0.,1.));
#335=DIRECTION('ref_axis',(1.,0.,0.));
#336=DIRECTION('center_axis',(-1.,0.,0.));
#337=DIRECTION('ref_axis',(0.,-1.,0.));
#338=DIRECTION('',(0.,1.,0.));
#339=DIRECTION('',(0.,0.,1.));
#340=DIRECTION('',(0.,0.,1.));
#341=DIRECTION('center_axis',(0.,1.,0.));
#342=DIRECTION('ref_axis',(-1.,0.,0.));
#343=DIRECTION('',(1.,0.,0.));
#344=DIRECTION('',(0.,0.,1.));
#345=DIRECTION('center_axis',(1.,0.,0.));
#346=DIRECTION('ref_axis',(0.,1.,0.));
#347=DIRECTION('',(0.,-1.,0.));
#348=DIRECTION('',(0.,0.,1.));
#349=DIRECTION('center_axis',(0.,-1.,0.));
#350=DIRECTION('ref_axis',(1.,0.,0.));
#351=DIRECTION('',(-1.,0.,0.));
#352=DIRECTION('center_axis',(0.,0.,1.));
#353=DIRECTION('ref_axis',(1.,0.,0.));
#354=CARTESIAN_POINT('',(0.,0.,0.));
#355=CARTESIAN_POINT('Origin',(-15.,5.,45.));
#356=CARTESIAN_POINT('',(-15.,15.,40.));
#357=CARTESIAN_POINT('',(-15.,-15.,40.));
#358=CARTESIAN_POINT('',(-15.,5.,40.));
#359=CARTESIAN_POINT('',(-10.,-10.,45.));
#360=CARTESIAN_POINT('Origin',(-15.,-15.,45.));
#361=CARTESIAN_POINT('',(-10.,10.,45.));
#362=CARTESIAN_POINT('',(-10.,5.,45.));
#363=CARTESIAN_POINT('Origin',(-15.,15.,45.));
#364=CARTESIAN_POINT('Origin',(5.,15.,45.));
#365=CARTESIAN_POINT('',(10.,10.,45.));
#366=CARTESIAN_POINT('',(5.,10.,45.));
#367=CARTESIAN_POINT('',(15.,15.,40.));
#368=CARTESIAN_POINT('Origin',(15.,15.,45.));
#369=CARTESIAN_POINT('',(5.,15.,40.));
#370=CARTESIAN_POINT('Origin',(15.,-5.,45.));
#371=CARTESIAN_POINT('',(15.,-15.,40.));
#372=CARTESIAN_POINT('',(15.,-5.,40.));
#373=CARTESIAN_POINT('',(10.,-10.,45.));
#374=CARTESIAN_POINT('',(10.,-5.,45.));
#375=CARTESIAN_POINT('Origin',(15.,-15.,45.));
#376=CARTESIAN_POINT('Origin',(-5.,-15.,45.));
#377=CARTESIAN_POINT('',(-5.,-15.,40.));
#378=CARTESIAN_POINT('',(-5.,-10.,45.));
#379=CARTESIAN_POINT('Origin',(10.,10.,40.));
#380=CARTESIAN_POINT('',(-10.,10.,60.));
#381=CARTESIAN_POINT('',(-10.,10.,40.));
#382=CARTESIAN_POINT('',(10.,10.,60.));
#383=CARTESIAN_POINT('',(-10.,10.,60.));
#384=CARTESIAN_POINT('',(10.,10.,40.));
#385=CARTESIAN_POINT('Origin',(-10.,10.,40.));
#386=CARTESIAN_POINT('',(-10.,-10.,60.));
#387=CARTESIAN_POINT('',(-10.,-10.,40.));
#388=CARTESIAN_POINT('',(-10.,-10.,60.));
#389=CARTESIAN_POINT('Origin',(0.,0.,40.));
#390=CARTESIAN_POINT('',(-25.,-25.,40.));
#391=CARTESIAN_POINT('',(25.,-25.,40.));
#392=CARTESIAN_POINT('',(25.,-25.,40.));
#393=CARTESIAN_POINT('',(25.,25.,40.));
#394=CARTESIAN_POINT('',(25.,25.,40.));
#395=CARTESIAN_POINT('',(-25.,25.,40.));
#396=CARTESIAN_POINT('',(-25.,25.,40.));
#397=CARTESIAN_POINT('',(-25.,-25.,40.));
#398=CARTESIAN_POINT('Origin',(10.,-10.,40.));
#399=CARTESIAN_POINT('',(10.,-10.,60.));
#400=CARTESIAN_POINT('',(10.,10.,60.));
#401=CARTESIAN_POINT('',(10.,-10.,40.));
#402=CARTESIAN_POINT('Origin',(-10.,-10.,40.));
#403=CARTESIAN_POINT('',(10.,-10.,60.));
#404=CARTESIAN_POINT('Origin',(0.,0.,60.));
#405=CARTESIAN_POINT('Origin',(-25.,25.,0.));
#406=CARTESIAN_POINT('',(-25.,-25.,0.));
#407=CARTESIAN_POINT('',(-25.,25.,0.));
#408=CARTESIAN_POINT('',(-25.,-25.,0.));
#409=CARTESIAN_POINT('',(-25.,-25.,0.));
#410=CARTESIAN_POINT('',(-25.,25.,0.));
#411=CARTESIAN_POINT('Origin',(25.,25.,0.));
#412=CARTESIAN_POINT('',(25.,25.,0.));
#413=CARTESIAN_POINT('',(-25.,25.,0.));
#414=CARTESIAN_POINT('',(25.,25.,0.));
#415=CARTESIAN_POINT('Origin',(25.,-25.,0.));
#416=CARTESIAN_POINT('',(25.,-25.,0.));
#417=CARTESIAN_POINT('',(25.,25.,0.));
#418=CARTESIAN_POINT('',(25.,-25.,0.));
#419=CARTESIAN_POINT('Origin',(-25.,-25.,0.));
#420=CARTESIAN_POINT('',(25.,-25.,0.));
#421=CARTESIAN_POINT('Origin',(0.,0.,0.));
#422=UNCERTAINTY_MEASURE_WITH_UNIT(LENGTH_MEASURE(0.01),#426,
'DISTANCE_ACCURACY_VALUE',
'Maximum model space distance between geometric entities at asserted c
onnectivities');
#423=UNCERTAINTY_MEASURE_WITH_UNIT(LENGTH_MEASURE(0.01),#426,
'DISTANCE_ACCURACY_VALUE',
'Maximum model space distance between geometric entities at asserted c
onnectivities');
#424=(
GEOMETRIC_REPRESENTATION_CONTEXT(3)
GLOBAL_UNCERTAINTY_ASSIGNED_CONTEXT((#422))
GLOBAL_UNIT_ASSIGNED_CONTEXT((#426,#428,#429))
REPRESENTATION_CONTEXT('','3D')
);
#425=(
GEOMETRIC_REPRESENTATION_CONTEXT(3)
GLOBAL_UNCERTAINTY_ASSIGNED_CONTEXT((#423))
GLOBAL_UNIT_ASSIGNED_CONTEXT((#426,#428,#429))
REPRESENTATION_CONTEXT('','3D')
);
#426=(
LENGTH_UNIT()
NAMED_UNIT(*)
SI_UNIT(.MILLI.,.METRE.)
);
#427=(
LENGTH_UNIT()
NAMED_UNIT(*)
SI_UNIT($,.METRE.)
);
#428=(
NAMED_UNIT(*)
PLANE_ANGLE_UNIT()
SI_UNIT($,.RADIAN.)
);
#429=(
NAMED_UNIT(*)
SI_UNIT($,.STERADIAN.)
SOLID_ANGLE_UNIT()
);
#430=SHAPE_DEFINITION_REPRESENTATION(#431,#432);
#431=PRODUCT_DEFINITION_SHAPE('',$,#434);
#432=SHAPE_REPRESENTATION('',(#266),#424);
#433=PRODUCT_DEFINITION_CONTEXT('part definition',#438,'design');
#434=PRODUCT_DEFINITION('(Unsaved)','(Unsaved)',#435,#433);
#435=PRODUCT_DEFINITION_FORMATION('',$,#440);
#436=PRODUCT_RELATED_PRODUCT_CATEGORY('(Unsaved)','(Unsaved)',(#440));
#437=APPLICATION_PROTOCOL_DEFINITION('international standard',
'automotive_design',2009,#438);
#438=APPLICATION_CONTEXT(
'Core Data for Automotive Mechanical Design Process');
#439=PRODUCT_CONTEXT('part definition',#438,'mechanical');
#440=PRODUCT('(Unsaved)','(Unsaved)',$,(#439));
#441=PRESENTATION_STYLE_ASSIGNMENT((#442));
#442=SURFACE_STYLE_USAGE(.BOTH.,#443);
#443=SURFACE_SIDE_STYLE('',(#444));
#444=SURFACE_STYLE_FILL_AREA(#445);
#445=FILL_AREA_STYLE('Steel - Satin',(#446));
#446=FILL_AREA_STYLE_COLOUR('Steel - Satin',#447);
#447=COLOUR_RGB('Steel - Satin',0.627450980392157,0.627450980392157,0.627450980392157);
ENDSEC;
END-ISO-10303-21;
